<?xml version="1.0" encoding="UTF-8" standalone="no"?>
<!-- Created with Inkscape (http://www.inkscape.org/) -->

<svg
   xmlns:dc="http://purl.org/dc/elements/1.1/"
   xmlns:cc="http://creativecommons.org/ns#"
   xmlns:rdf="http://www.w3.org/1999/02/22-rdf-syntax-ns#"
   xmlns:svg="http://www.w3.org/2000/svg"
   xmlns="http://www.w3.org/2000/svg"
   xmlns:sodipodi="http://sodipodi.sourceforge.net/DTD/sodipodi-0.dtd"
   xmlns:inkscape="http://www.inkscape.org/namespaces/inkscape"
   id="svg2"
   version="1.1"
   inkscape:version="0.91 r13725"
   xml:space="preserve"
   width="1135.8173"
   height="369.98596"
   viewBox="0 0 1135.8173 369.98596"
   sodipodi:docname="aviso-imagen.svg"><metadata
     id="metadata8"><rdf:RDF><cc:Work
         rdf:about=""><dc:format>image/svg+xml</dc:format><dc:type
           rdf:resource="http://purl.org/dc/dcmitype/StillImage" /><dc:title /></cc:Work></rdf:RDF></metadata><defs
     id="defs6"><clipPath
       clipPathUnits="userSpaceOnUse"
       id="clipPath16"><path
         d="M 0,800 1280,800 1280,0 0,0 0,800 Z"
         id="path18"
         inkscape:connector-curvature="0" /></clipPath><clipPath
       id="clipPath4102"
       clipPathUnits="userSpaceOnUse"><path
         inkscape:connector-curvature="0"
         id="path4104"
         d="M 0,612 792,612 792,0 0,0 0,612 Z" /></clipPath></defs><sodipodi:namedview
     pagecolor="#ffffff"
     bordercolor="#666666"
     borderopacity="1"
     objecttolerance="10"
     gridtolerance="10"
     guidetolerance="10"
     inkscape:pageopacity="0"
     inkscape:pageshadow="2"
     inkscape:window-width="1391"
     inkscape:window-height="876"
     id="namedview4"
     showgrid="false"
     fit-margin-top="0"
     fit-margin-left="0"
     fit-margin-right="0"
     fit-margin-bottom="0"
     inkscape:zoom="1.4142136"
     inkscape:cx="527.44042"
     inkscape:cy="116.35233"
     inkscape:window-x="49"
     inkscape:window-y="24"
     inkscape:window-maximized="1"
     inkscape:current-layer="g10"
     inkscape:snap-bbox="true"
     inkscape:bbox-nodes="true"
     inkscape:snap-intersection-paths="false"
     showguides="true"
     inkscape:guide-bbox="true"
     inkscape:bbox-paths="true"
     inkscape:object-nodes="false"
     inkscape:object-paths="true"
     inkscape:snap-global="true"
     inkscape:snap-smooth-nodes="true"
     inkscape:snap-bbox-edge-midpoints="true"
     inkscape:snap-midpoints="true" /><g
     id="g10"
     inkscape:groupmode="layer"
     inkscape:label="pagina en construccion"
     transform="matrix(1.25,0,0,-1.25,-266.46975,657.68382)"><g
       id="g12"><g
         id="g14"
         clip-path="url(#clipPath16)"><g
           id="g20"
           transform="translate(213.1758,381.1992)"><path
             d="m 0,0 c 15.557,-0.018 31.113,-0.039 46.67,-0.057 3.725,-0.004 7.45,0 11.592,-0.4 -0.323,-0.371 -0.6,-0.809 -0.988,-1.09 -0.21,-0.152 -0.613,-0.046 -0.929,-0.046 C 37.941,-1.594 19.537,-1.594 1.134,-1.59 0.755,-1.59 0.377,-1.544 0,-1.52 L 0,0 Z"
             style="fill:#960510;fill-opacity:1;fill-rule:evenodd;stroke:none"
             id="path22"
             inkscape:connector-curvature="0" /></g><g
           id="g24"
           transform="translate(213.1758,383.8584)"><path
             d="m 0,0 c 14.495,-0.019 28.991,-0.038 43.486,-0.056 3.481,-0.005 6.964,0.026 10.444,-0.029 0.581,-0.01 1.156,-0.385 1.734,-0.593 C 55.087,-0.954 54.511,-1.47 53.934,-1.472 37.665,-1.515 21.395,-1.506 5.126,-1.507 3.417,-1.507 1.708,-1.515 0,-1.519 L 0,0 Z"
             style="fill:#960510;fill-opacity:1;fill-rule:evenodd;stroke:none"
             id="path26"
             inkscape:connector-curvature="0" /></g><g
           id="g28"
           transform="translate(440.4702,357.7559)"><path
             style="fill:#960510;fill-opacity:1;fill-rule:evenodd;stroke:none"
             d="M 664.42578 190.10938 C 669.15953 189.9606 673.96492 191.25344 678.70117 192.08594 C 702.43242 196.26094 726.15516 200.50141 749.87891 204.72266 C 774.38016 209.08266 798.88031 213.44539 823.38281 217.80664 C 827.01906 218.45289 830.655 219.09703 834.28125 219.73828 C 833.95875 221.79453 833.95359 221.82336 832.15234 221.50586 C 813.55859 218.21461 794.9675 214.91523 776.375 211.61523 C 752.805 207.43523 729.23211 203.25281 705.66211 199.07031 C 693.68461 196.94656 681.74773 194.51023 669.70898 192.83398 C 664.06273 192.04773 658.20883 192.57615 652.45508 192.76367 C 637.84008 193.24242 623.22758 193.84805 608.61133 194.43555 C 583.02258 195.46305 557.42984 196.53414 531.83984 197.55664 C 517.61984 198.12539 503.39844 198.61484 489.17969 199.18359 C 463.43219 200.21359 437.68359 201.29406 411.93359 202.32031 C 394.08109 203.03031 376.22945 203.67125 358.37695 204.375 C 335.46945 205.2775 312.56125 206.20945 289.65625 207.12695 C 288.2325 207.18325 286.79578 207.34615 285.39453 207.1875 C 284.73578 207.1138 284.14734 206.39359 283.52734 205.96484 C 283.72109 205.70109 283.91367 205.43685 284.10742 205.17188 C 297.29617 204.66563 310.48438 204.17633 323.67188 203.64258 C 349.26313 202.61258 374.85352 201.53758 400.44727 200.51758 C 418.69352 199.79008 436.9425 199.14867 455.1875 198.41992 C 480.85875 197.39492 506.52672 196.305 532.19922 195.28125 C 550.28797 194.55875 568.38125 193.92867 586.46875 193.20117 C 612.455 192.15617 638.43453 190.93062 664.42578 190.10938 z M 658.1582 198.68555 C 659.22419 198.68522 660.28984 198.6946 661.35547 198.7168 C 667.87672 198.84805 674.40547 199.74102 680.88672 200.63477 C 696.77672 202.82352 712.64078 205.22492 728.51953 207.51367 C 745.57078 209.97117 762.62914 212.3932 779.68164 214.8457 C 796.81289 217.31195 813.94016 219.79219 831.06641 222.27344 C 831.82391 222.38219 832.56969 222.54625 833.33594 222.6875 C 833.30214 224.34 832.69383 224.71961 831.23633 224.50586 C 798.07758 219.67586 764.915 214.87977 731.75 210.10352 C 710.3175 207.01977 688.90453 203.76436 667.42578 201.04688 C 661.13703 200.25187 654.64961 200.95982 648.25586 201.10352 C 636.63586 201.36227 625.01984 201.7118 613.40234 202.0293 C 592.45859 202.6018 571.51352 203.205 550.57227 203.75 C 534.68477 204.16375 518.795 204.47422 502.90625 204.88672 C 482.12125 205.42547 461.33648 206.04539 440.55273 206.58789 C 424.66523 207.00289 408.77617 207.31938 392.88867 207.73438 C 372.02617 208.27812 351.16453 208.90086 330.30078 209.44336 C 315.28453 209.83211 300.26359 210.14383 285.24609 210.48633 C 284.86734 210.49533 284.48719 210.48828 284.11719 210.48828 C 283.43469 208.81453 284.16379 208.42189 285.54883 208.39062 C 291.87133 208.25439 298.19508 208.09117 304.51758 207.91992 C 325.61883 207.34617 346.71836 206.74547 367.81836 206.19922 C 383.70711 205.78672 399.59688 205.47695 415.48438 205.06445 C 436.27062 204.52445 457.05484 203.90242 477.83984 203.35742 C 493.64859 202.94492 509.46008 202.6293 525.26758 202.2168 C 546.21133 201.6693 567.15 201.04445 588.09375 200.50195 C 603.98125 200.08945 619.87156 199.76719 635.75781 199.36719 C 643.22594 199.18125 650.6963 198.68785 658.1582 198.68555 z "
             id="path4737"
             transform="matrix(0.8,0,0,-0.8,-227.2944,168.39116)" /><path
             style="fill:#960510;fill-opacity:1;fill-rule:evenodd;stroke:none"
             d="M 667.01172 173.00391 C 668.24605 173.05121 669.49391 173.25717 670.68359 173.54688 C 717.18734 184.90936 763.68328 196.30813 810.17578 207.70312 C 818.30703 209.69565 826.42336 211.74578 834.56836 213.67578 C 836.20586 214.06453 836.62266 214.61172 835.47266 216.13672 C 825.54641 213.70547 815.58836 211.27078 805.63086 208.83203 C 760.67086 197.81953 715.72008 186.77719 670.73633 175.86719 C 667.96758 175.19469 664.93061 175.28711 662.04688 175.47461 C 636.17061 177.14461 610.29953 178.9168 584.42578 180.6543 C 556.10578 182.5568 527.78555 184.45297 499.4668 186.35547 C 471.2268 188.25047 442.98734 190.15133 414.74609 192.04883 C 386.42859 193.95133 358.10852 195.84586 329.79102 197.75586 C 314.96102 198.75711 300.13344 199.78227 285.30469 200.79102 C 284.91469 200.81852 284.52289 200.79492 284.11914 200.79492 C 283.38914 199.26992 283.80539 198.66148 285.49414 198.55273 C 302.61539 197.46023 319.73602 196.33164 336.85352 195.18164 C 356.81102 193.84164 376.76391 192.45578 396.72266 191.11328 C 414.39141 189.92203 432.06242 188.77734 449.73242 187.58984 C 467.32117 186.40734 484.9107 185.18945 502.50195 184.00195 C 517.7257 182.9732 532.95078 181.97422 548.17578 180.94922 C 565.92328 179.75797 583.67242 178.54727 601.41992 177.35352 C 616.56617 176.33352 631.7131 175.335 646.85938 174.3125 C 653.16809 173.885 659.47266 173.35922 665.78516 173.01172 C 666.19047 172.98922 666.60027 172.98851 667.01172 173.00391 z M 665.13281 181.58984 C 668.84156 181.48484 672.6175 182.55844 676.3125 183.33594 C 728.645 194.36844 780.96711 205.43648 833.28711 216.52148 C 833.99461 216.66773 835.15734 217.0382 835.21484 217.43945 C 835.43734 218.9332 834.48781 218.94789 833.25781 218.68164 C 824.60906 216.82039 815.94211 215.03773 807.28711 213.20898 C 767.78961 204.86398 728.29117 196.51086 688.79492 188.16211 C 682.76742 186.88711 676.76977 185.43185 670.69727 184.42188 C 667.38852 183.87187 663.93867 183.81898 660.57617 183.99023 C 634.75617 185.30648 608.94586 186.73875 583.13086 188.125 C 562.44836 189.2375 541.76383 190.33641 521.08008 191.44141 C 500.31758 192.54891 479.55547 193.66078 458.79297 194.76953 C 438.02922 195.87953 417.26766 196.99086 396.50391 198.09961 C 375.82016 199.20461 355.13691 200.31516 334.45312 201.41016 C 318.26689 202.26641 302.08219 203.08391 285.89844 203.97266 C 284.48844 204.05146 283.46898 204.1106 283.99023 201.98438 C 289.92273 201.63813 295.75555 201.27859 301.5918 200.96484 C 324.88055 199.71984 348.17094 198.48391 371.46094 197.25391 C 390.88344 196.22641 410.30461 195.21844 429.72461 194.17969 C 455.53961 192.79969 481.35297 191.39461 507.16797 190.00586 C 527.85172 188.89586 548.535 187.79711 569.21875 186.69336 C 589.98 185.58336 610.74336 184.47992 631.50586 183.35742 C 642.71336 182.74992 653.91531 181.90484 665.13281 181.58984 z "
             id="path4735"
             transform="matrix(0.8,0,0,-0.8,-227.2944,168.39116)" /><path
             style="fill:#960510;fill-opacity:1;fill-rule:evenodd;stroke:none"
             d="M 577.89258 141.25781 L 385.03125 169.93945 L 385.0293 169.94531 C 383.02673 170.24178 381.02406 170.53754 379.02148 170.83398 C 351.12215 174.96393 323.22226 179.09235 295.32422 183.22852 C 292.25797 183.68352 289.20187 184.20672 286.14062 184.69922 C 286.18313 185.03047 286.22578 185.3607 286.26953 185.68945 C 318.94776 181.2714 351.62579 176.8541 384.29688 172.4375 L 577.07812 146.38281 L 577.07812 146.37891 C 578.56763 146.17782 580.05731 145.97905 581.54688 145.7793 C 582.44081 145.65942 583.33466 145.53909 584.22852 145.41797 C 612.73977 141.55422 641.24461 137.64836 669.75586 133.78711 C 670.41711 133.69961 671.17828 133.82692 671.80078 134.07812 C 676.12203 135.8244 680.4232 137.62008 684.7207 139.42383 C 685.74945 139.85508 686.74219 140.37961 687.92969 140.94336 C 687.92969 139.04461 688.10181 137.51945 687.85938 136.06445 C 687.72933 135.2907 687.03453 134.29922 686.33203 133.98047 C 681.95578 131.99172 677.53609 130.08328 673.05859 128.33203 C 672.06203 127.94297 670.9065 127.69732 669.80078 127.67969 C 669.43221 127.67369 669.06875 127.69409 668.71875 127.74219 C 659.71625 128.99344 650.7393 130.41781 641.74805 131.75781 C 620.4638 134.92839 599.17799 138.09168 577.89258 141.25781 z "
             id="path4783"
             transform="matrix(0.8,0,0,-0.8,-227.2944,168.39116)" /><path
             style="fill:#960510;fill-opacity:1;fill-rule:evenodd;stroke:none"
             d="M 579.07227 133.83398 L 386.45703 165.08203 C 353.00175 170.51243 319.54139 175.94329 286.07812 181.37695 C 286.12813 181.70195 286.17781 182.02797 286.22656 182.35547 C 289.38531 181.92172 292.54742 181.51687 295.70117 181.04688 C 325.70524 176.57745 355.70721 172.09887 385.71094 167.625 L 578.25391 138.98828 L 578.25391 138.98438 C 587.39025 137.63392 596.52658 136.28372 605.66211 134.92383 C 627.23836 131.71258 648.80992 128.46664 670.38867 125.27539 C 671.10742 125.16914 671.95742 125.37049 672.63867 125.66797 C 676.47367 127.34547 680.28484 129.08187 684.08984 130.82812 C 685.18234 131.33062 686.23 131.93055 687.5625 132.62305 C 687.5625 130.64555 687.7125 129.05633 687.5 127.51758 C 687.4 126.80633 686.74125 125.89312 686.09375 125.57812 C 681.83625 123.51315 677.53781 121.5325 673.19531 119.65625 C 672.42375 119.3225 671.50598 119.10789 670.63281 119.08984 C 670.34176 119.08384 670.05531 119.10005 669.78125 119.14062 C 662.7475 120.18812 655.73609 121.37117 648.71484 122.51367 C 625.70484 126.25367 602.69555 130.00186 579.68555 133.73438 L 579.07227 133.83398 z "
             id="path4791"
             transform="matrix(0.8,0,0,-0.8,-227.2944,168.39116)" /><path
             style="fill:#960510;fill-opacity:1;fill-rule:evenodd;stroke:none"
             d="M 580.1875 126.81055 L 383.37891 161.01367 C 350.83906 166.75956 318.34464 172.41893 285.94922 178.62109 C 286.45797 179.01484 286.90484 179.01531 287.33984 178.94531 L 604.68359 127.48828 C 626.52484 123.94578 648.36289 120.40914 670.21289 116.93164 C 671.27664 116.76289 672.5532 116.94774 673.5332 117.39648 C 678.01695 119.45148 682.43062 121.65766 687.07812 123.91016 C 687.07812 121.98891 687.16203 120.20641 687.01953 118.44141 C 686.98203 117.94891 686.35711 117.33383 685.84961 117.08008 C 681.68711 115.00133 677.51141 112.94766 673.28516 111.00391 C 672.63359 110.70484 671.82805 110.53846 671.07031 110.54297 C 670.81773 110.54497 670.57062 110.56487 670.33594 110.60547 C 649.32219 114.27047 628.3057 117.93297 607.31445 121.73047 C 598.26003 123.36776 589.22245 125.10983 580.18359 126.83984 L 580.1875 126.81055 z "
             id="path4799"
             transform="matrix(0.8,0,0,-0.8,-227.2944,168.39116)" /><path
             style="fill:#960510;fill-opacity:1;fill-rule:evenodd;stroke:none"
             d="M 581.43359 118.98438 L 389.32031 155.32227 C 354.80346 161.84924 320.32325 168.37067 285.84961 174.89062 C 285.91591 175.2019 285.98133 175.51297 286.04883 175.82422 C 286.50133 175.77292 286.95945 175.74922 287.4082 175.66797 L 670.49219 108.47266 C 671.75344 108.25391 673.29703 108.52076 674.45703 109.08203 C 678.54703 111.05578 682.52484 113.25359 687.02734 115.62109 C 686.90734 113.45484 686.91031 111.72164 686.66406 110.02539 C 686.58156 109.44789 685.97186 108.76305 685.42188 108.4668 C 681.67313 106.4518 677.90297 104.47219 674.07422 102.61719 C 673.15297 102.16969 671.9282 101.92242 670.93945 102.10742 C 641.09666 107.69459 611.26444 113.33938 581.43359 118.98438 z "
             id="path4803"
             transform="matrix(0.8,0,0,-0.8,-227.2944,168.39116)" /><path
             style="fill:#960510;fill-opacity:1;fill-rule:evenodd;stroke:none"
             d="M 673.16992 76.634766 C 672.83457 76.628516 672.50828 76.656484 672.20703 76.724609 L 485.93555 119.3125 C 484.06831 119.72145 482.2065 120.12725 480.35742 120.54297 C 477.59492 121.16297 474.80914 121.70375 472.08789 122.46875 C 472.04414 122.481 471.99914 122.49747 471.95508 122.50977 L 454.85742 126.41992 C 454.22067 126.54937 453.58317 126.6739 452.94336 126.78125 C 452.50127 126.85555 452.14726 126.97065 451.83984 127.10938 L 401.08594 138.71289 C 401.08581 138.71189 401.08606 138.71098 401.08594 138.70898 C 362.47219 147.55398 324.02703 156.35781 285.58203 165.16406 C 285.62833 165.43156 285.67443 165.70195 285.7207 165.9707 C 286.43445 165.8832 287.15867 165.84797 287.85742 165.69922 C 294.18992 164.35672 300.52086 162.99906 306.84961 161.63281 C 332.89921 156.00756 358.94689 150.38062 385 144.77344 L 385 144.76758 L 584.16016 101.81055 C 584.33591 101.77266 584.51174 101.73515 584.6875 101.69727 L 587.70117 101.04688 C 615.9738 94.951827 644.24427 88.853712 672.52344 82.804688 C 673.45969 82.603437 674.69844 82.803441 675.52344 83.283203 C 678.84219 85.213203 682.05367 87.325859 685.66992 89.599609 C 685.66992 87.610859 685.81474 85.953044 685.60352 84.341797 C 685.50852 83.616797 684.84086 82.775859 684.19336 82.349609 C 681.56461 80.612109 678.9068 78.893281 676.12305 77.425781 C 675.27555 76.978606 674.17597 76.653928 673.16992 76.634766 z M 672.56055 85.167969 C 672.20378 85.161719 671.85563 85.191391 671.53125 85.259766 C 645.25375 90.827269 618.99758 96.503331 592.73633 102.16211 C 591.18249 102.49678 589.63589 102.83238 588.08789 103.16797 C 586.65884 103.47777 585.22829 103.7875 583.79688 104.09766 L 583.79688 104.09375 L 385.12891 146.94336 C 351.96973 154.098 318.87957 161.23874 285.82031 168.37305 C 285.88031 168.7068 285.9407 169.04195 286.00195 169.37695 C 319.63858 162.56981 353.28694 155.75864 386.9668 148.94336 L 391.45898 148.03516 L 582.97461 109.27539 C 583.51763 109.16561 584.0605 109.0551 584.60352 108.94531 C 613.7579 103.05092 642.91113 97.153821 672.07617 91.308594 C 673.01992 91.118594 674.24125 91.368043 675.09375 91.841797 C 678.725 93.849297 682.265 96.018125 686.125 98.296875 C 686.125 96.473125 686.30958 94.944844 686.05469 93.496094 C 685.89719 92.607344 685.25 91.546953 684.5 91.064453 C 681.64875 89.234453 678.73064 87.48375 675.70312 85.96875 C 674.79 85.510313 673.63082 85.185544 672.56055 85.167969 z M 672.02539 93.636719 C 671.7014 93.638867 671.38477 93.669141 671.08789 93.728516 C 642.32389 99.472708 613.57343 105.28731 584.82031 111.08984 L 584.3418 111.1875 L 390.76953 150.38672 C 389.34284 150.67551 387.95269 150.95758 386.52734 151.24609 C 352.7086 158.09164 319.22657 164.86887 285.87109 171.62109 C 285.90979 171.90734 285.95019 172.19227 285.99023 172.47852 C 286.50898 172.43732 287.03617 172.44652 287.54492 172.35156 C 295.46492 170.86281 303.38203 169.36023 311.30078 167.86523 C 335.07677 163.37343 358.85395 158.88567 382.63281 154.41211 L 382.63477 154.4082 L 581.78711 116.75586 L 587.12305 115.74609 L 587.12305 115.74805 C 615.28517 110.42425 643.44655 105.09345 671.61328 99.794922 C 672.39578 99.647422 673.37914 99.671675 674.05664 100.02539 C 677.28164 101.69914 680.43672 103.50906 683.60547 105.28906 C 684.50047 105.79156 685.3568 106.35656 686.4668 107.03906 C 686.4668 104.99656 686.61508 103.40719 686.40234 101.86719 C 686.30234 101.13344 685.66492 100.23922 685.01367 99.855469 C 681.68492 97.897969 678.31804 95.987891 674.85938 94.275391 C 674.04093 93.869453 672.99735 93.630273 672.02539 93.636719 z "
             transform="matrix(0.8,0,0,-0.8,-227.2944,168.39116)"
             id="path4775" /><path
             style="fill:#960510;fill-opacity:1;fill-rule:evenodd;stroke:none"
             d="M 664.00586 0 C 663.31068 0.00476563 662.6193 0.04476568 661.93555 0.13476562 C 653.0218 1.3147656 644.03734 2.304375 635.27734 4.265625 C 608.26859 10.310625 581.85117 18.548125 555.73242 27.609375 C 513.94742 42.105625 472.1568 56.621406 430.7168 72.066406 C 382.61055 89.993906 334.88477 108.9418 286.97852 127.4043 C 285.41727 128.0043 284.68617 128.74672 284.85742 130.48047 C 285.02742 132.20672 285.09367 133.97602 284.91992 135.69727 C 284.51867 139.63227 286.46523 139.52586 289.24023 138.69336 C 293.85898 137.31211 298.45695 135.86086 303.06445 134.44336 C 391.2307 107.30711 479.39555 80.173359 567.56055 53.037109 C 601.44555 42.608359 635.32883 32.183516 669.20508 21.728516 C 670.73133 21.257266 672.03352 20.996094 672.97852 22.839844 C 546.74852 61.702344 420.64742 100.5218 294.54492 139.3418 C 294.58862 139.53555 294.63082 139.72937 294.67578 139.92188 C 295.73203 139.78187 296.82719 139.77922 297.83594 139.48047 C 405.87594 107.64172 513.90961 75.780625 621.94336 43.921875 C 639.82086 38.649375 657.69648 33.364766 675.58398 28.134766 C 676.39773 27.897266 677.70883 27.752975 678.17383 28.199219 C 680.68508 30.619219 683.92281 31.948203 686.60156 34.064453 C 706.34531 49.663203 726.04016 65.323984 745.75391 80.958984 C 746.28766 81.378984 746.87766 81.722266 747.44141 82.103516 C 747.55516 81.932266 747.66555 81.76375 747.7793 81.59375 C 737.40805 72.72625 727.03867 63.859685 716.66992 54.992188 C 717.54742 55.135936 718.18328 55.572109 718.80078 56.037109 C 731.50828 65.600859 743.82594 75.606094 755.64844 86.277344 C 768.43719 97.819844 781.88945 108.62297 794.87695 119.94922 C 799.15945 123.68422 802.89852 128.04273 806.88477 132.11523 C 806.70727 132.29898 806.52641 132.48297 806.34766 132.66797 C 799.78391 126.97297 793.22117 121.2793 786.48242 115.43555 C 786.39612 116.03555 786.15961 116.55484 786.31836 116.74609 C 787.36961 118.01234 788.38211 119.35164 789.63086 120.40039 C 797.14336 126.70664 804.77727 132.8732 812.22852 139.25195 C 813.92727 140.70445 815.0693 142.80562 816.4668 144.60938 C 816.2843 144.76438 816.09586 144.92047 815.91211 145.07422 C 806.23461 137.03297 796.55984 128.99445 786.71484 120.81445 C 786.10984 122.73945 786.89367 123.86031 788.23242 124.75781 C 789.08117 125.32781 789.99352 125.81672 790.79102 126.44922 C 799.78727 133.56672 808.81148 140.65328 817.70898 147.89453 C 819.16523 149.08078 820.04586 150.97211 821.19336 152.53711 C 821.01211 152.67336 820.82969 152.80711 820.64844 152.94336 C 809.45594 144.04586 798.26523 135.14695 786.95898 126.1582 C 786.38273 128.29695 787.24312 129.43984 788.82812 130.24609 C 789.45565 130.56609 790.07939 130.92195 790.64062 131.3457 C 800.79188 139.0332 810.97438 146.68922 821.04688 154.48047 C 822.61563 155.69422 823.68969 157.54672 824.99219 159.10547 C 824.78469 159.29797 824.57719 159.49039 824.36719 159.68164 C 811.98844 150.27664 799.61094 140.8707 787.11719 131.37695 C 786.61219 133.4882 787.43711 134.64781 789.03711 135.44531 C 789.73836 135.79656 790.43656 136.17727 791.07031 136.63477 C 802.28656 144.74477 813.52352 152.83102 824.66602 161.04102 C 826.06227 162.07102 826.96109 163.77422 828.08984 165.16797 C 827.88984 165.34922 827.68633 165.52758 827.48633 165.70508 C 814.16258 156.04508 800.83992 146.38453 787.45117 136.67578 C 786.81492 138.62453 787.54487 139.77172 789.20117 140.57422 C 790.25867 141.08797 791.27094 141.71727 792.24219 142.38477 C 803.96719 150.45602 815.70719 158.50686 827.36719 166.67188 C 828.70594 167.60938 829.58594 169.20008 830.67969 170.48633 C 830.46469 170.68758 830.25016 170.8893 830.03516 171.0918 C 815.90891 161.3418 801.78047 151.58953 787.51172 141.73828 C 787.44802 142.21953 787.38234 142.515 787.37109 142.8125 C 787.28859 145.26625 789.49234 145.45008 790.93359 146.39258 C 803.96859 154.92258 817.02266 163.42445 830.00391 172.0332 C 831.14766 172.79195 831.825 174.25367 832.71875 175.38867 C 832.50375 175.57367 832.28797 175.75766 832.07422 175.94141 C 817.37547 166.30641 802.67891 156.67242 787.84766 146.95117 C 787.39016 148.82867 787.84666 150.0343 789.56641 150.68555 C 790.22516 150.9343 790.87781 151.24328 791.47656 151.61328 C 804.91906 159.93953 818.37352 168.24977 831.75977 176.66602 C 832.92477 177.39977 833.63344 178.85672 834.55469 179.98047 C 834.35719 180.16297 834.15969 180.3468 833.96094 180.5293 C 818.67844 171.0418 803.39258 161.55594 787.98633 151.99219 C 787.49008 154.12094 788.3325 155.16656 789.9375 155.78906 C 790.52 156.01531 791.11289 156.23703 791.65039 156.55078 C 805.57414 164.68828 819.50391 172.81461 833.37891 181.03711 C 834.41891 181.65211 835.04984 182.95305 835.87109 183.93555 C 835.65484 184.15805 835.4382 184.37836 835.2207 184.59961 C 819.6232 175.45211 804.02289 166.30422 788.33789 157.10547 C 787.76414 158.97422 788.25879 160.13719 790.04883 160.71094 C 790.72133 160.92594 791.38375 161.20561 792 161.54688 C 806.1975 169.35438 820.40078 177.15367 834.55078 185.04492 C 835.51328 185.58117 836.07867 186.82594 836.82617 187.74219 L 836.17969 188.38867 C 820.32219 179.63492 804.46844 170.88445 788.49219 162.06445 C 787.88844 163.8932 788.45879 165.01594 790.17383 165.61719 C 790.76383 165.82344 791.37719 165.99234 791.92969 166.27734 C 806.46719 173.77109 821.01141 181.25789 835.50391 188.83789 C 836.37891 189.29539 836.85102 190.52328 837.50977 191.39453 C 837.29852 191.58078 837.08625 191.76687 836.875 191.95312 C 820.8775 183.6694 804.87766 175.38711 788.75391 167.03711 C 788.26266 168.99086 788.78051 170.12445 790.63672 170.56445 C 791.24547 170.70945 791.8425 170.93969 792.40625 171.21094 C 806.92 178.22094 821.41867 185.25586 835.95117 192.22461 C 837.34742 192.89586 837.81141 193.68922 837.31641 195.32422 C 821.11266 187.48672 805.02375 179.7032 788.90625 171.9082 C 787.9 175.1432 790.5225 175.05609 792.28125 175.83984 C 806.9225 182.38609 821.5375 188.98211 836.1875 195.50586 C 837.55625 196.11586 838.01055 196.86328 837.37305 198.45703 C 821.2943 191.23328 805.2382 184.01937 789.0957 176.76562 C 788.28945 180.00063 790.74164 179.87648 792.46289 180.58398 C 807.07289 186.60148 821.65953 192.67305 836.26953 198.68555 C 837.69078 199.2693 837.96859 200.0357 837.15234 201.7832 C 796.11609 183.03695 753.75469 168.12227 710.99219 154.29102 C 711.72469 154.76727 712.50609 155.12185 713.30859 155.42188 C 733.07234 162.82438 752.85586 170.17836 772.59961 177.63086 C 793.58336 185.55461 814.53109 193.57258 835.49609 201.54883 C 836.74109 202.02383 838.25891 202.31109 837.28516 204.46484 C 836.49766 204.20609 835.68469 203.97186 834.89844 203.67188 C 786.07341 185.10404 737.254 166.52926 688.41016 148.01172 C 688.35886 146.53811 688.32996 145.18911 688.11328 143.92383 C 688.00828 143.31383 687.28547 142.57672 686.66797 142.32422 C 682.07297 140.43797 677.45906 138.58719 672.78906 136.89844 C 671.35781 136.38094 669.68422 136.05023 668.19922 136.24023 C 656.35797 137.74023 644.53453 139.37883 632.70703 140.98633 C 614.3677 143.47778 596.02996 145.97815 577.69141 148.4668 C 577.36981 148.51044 577.04816 148.55402 576.72656 148.59766 L 383.64453 174.66406 L 383.64258 174.66797 C 371.82688 176.25122 360.01595 177.86769 348.20312 179.4668 C 333.2913 181.48386 318.37821 183.50713 303.4668 185.53125 C 298.46477 186.13636 293.46216 186.73815 288.46094 187.34766 C 287.74844 187.43516 287.05937 187.70227 286.35938 187.88477 C 286.44349 187.95298 286.52334 187.9948 286.60547 188.05078 C 286.51037 188.0732 286.41559 188.0978 286.32031 188.11914 C 286.37531 188.39164 286.43133 188.6643 286.48633 188.93555 C 291.668 188.3053 296.84958 187.67527 302.03125 187.04492 C 309.66479 186.21821 317.29843 185.39349 324.93164 184.5625 C 338.84289 183.04875 352.75156 181.52719 366.66406 180.02344 C 369.95024 179.66917 373.23685 179.31704 376.52344 178.96484 C 376.52408 178.96477 376.52475 178.96491 376.52539 178.96484 L 579.58789 156.99609 C 584.0779 156.50975 588.56788 156.02408 593.05859 155.53906 C 606.97109 154.03406 620.88437 152.53461 634.79688 151.03711 C 645.56561 149.87961 656.33186 148.69578 667.10938 147.61328 C 667.48469 147.57548 667.87082 147.54922 668.25977 147.54102 C 669.4266 147.51642 670.625 147.64109 671.67969 148.00391 C 708.41719 160.66641 745.1282 173.39898 781.8457 186.11523 C 799.75695 192.32023 817.66859 198.52844 835.58984 204.71094 C 836.89984 205.16469 838.04125 205.57565 837.09375 207.45312 C 836.28125 207.19815 835.46461 206.96695 834.66211 206.68945 C 780.62711 187.9857 726.59727 169.26555 672.54102 150.62305 C 670.59477 149.9518 668.37055 149.70064 666.31055 149.82812 C 661.73805 150.10689 657.19086 150.75055 652.63086 151.24805 C 629.99461 153.7168 607.35945 156.20359 584.7207 158.65234 C 583.20648 158.81595 581.69212 158.97844 580.17773 159.14062 C 579.86069 159.17458 579.54361 159.20825 579.22656 159.24219 L 578.80078 159.28711 L 381.92383 180.52734 L 381.92188 180.53516 L 381.91992 180.53906 C 374.21254 181.36289 366.50494 182.18824 358.79883 183.01758 C 335.45133 185.53133 312.10742 188.06773 288.76367 190.61523 C 287.94492 190.70403 287.15 191.02789 286.34375 191.24414 C 286.38625 191.44414 286.43085 191.64375 286.47461 191.84375 C 287.07461 191.84375 287.68039 191.89134 288.27539 191.83594 C 298.82414 190.84594 309.37242 189.84625 319.91992 188.84375 C 335.89742 187.3275 351.87867 185.79836 367.85742 184.28711 C 381.94867 182.95586 396.04086 181.64961 410.13086 180.31836 C 424.53586 178.95586 438.93875 177.57148 453.34375 176.20898 C 467.435 174.87898 481.52789 173.57273 495.61914 172.24023 C 511.59789 170.72773 527.57469 169.19523 543.55469 167.67773 C 557.87969 166.31523 572.20695 164.95852 586.5332 163.60352 C 600.62445 162.27102 614.71344 160.93436 628.80469 159.60938 C 641.16344 158.44938 653.51992 157.25727 665.88867 156.19727 C 667.86367 156.02977 670.00141 156.13947 671.87891 156.7207 C 700.85016 165.6907 729.79219 174.76414 758.74219 183.80664 C 784.14969 191.74414 809.5593 199.67203 834.9668 207.61328 C 836.25305 208.01578 837.97305 208.19188 836.81055 210.39062 C 836.09305 210.2019 835.40102 210.05125 834.72852 209.84375 C 782.48727 193.51375 730.23344 177.21602 678.02344 160.79102 C 672.37219 159.01227 666.83961 157.50094 660.88086 158.71094 C 659.49086 158.99469 658.05297 159.04008 656.63672 159.17383 C 640.81422 160.65758 624.98992 162.1275 609.16992 163.625 C 591.61492 165.28625 574.06352 166.98188 556.50977 168.64062 C 540.60727 170.14187 524.70078 171.59781 508.80078 173.10156 C 491.24703 174.76156 473.69828 176.47031 456.14453 178.13281 C 440.16453 179.64531 424.17992 181.10469 408.20117 182.61719 C 389.07367 184.42844 369.94852 186.28141 350.82227 188.09766 C 332.71727 189.81891 314.61211 191.52141 296.50586 193.22266 C 292.35836 193.61516 288.20641 193.97586 284.06641 194.34961 C 283.81391 193.47836 283.62227 192.81234 283.44727 192.21484 L 273.64844 192.21484 L 273.64844 257.33594 L 265.44336 257.33594 L 265.44336 249.38086 C 264.35086 249.30206 263.4932 249.23945 262.37695 249.1582 C 263.52695 249.03195 264.41711 248.93484 265.28711 248.83984 L 265.28711 192.18555 L 259.79492 192.18555 L 259.79492 249.62695 C 255.12117 249.13695 250.68211 248.67055 246.06836 248.18555 L 246.06836 252.43359 L 240.93164 252.43359 C 240.80289 251.93609 240.63094 251.49617 240.58594 251.04492 C 240.32344 248.47117 239.045 247.47461 236.375 247.75586 C 232.335 248.18461 228.23055 248.06797 224.2168 248.63672 C 221.47055 249.02422 219.62234 247.3318 217.33984 246.68555 C 212.79859 245.4043 208.2275 243.24859 203.65625 243.21484 C 165.5925 242.93484 127.52523 243.055 89.458984 243.0625 C 88.622734 243.0625 87.786563 243.1511 86.695312 243.21484 L 86.695312 253.13086 L 78.447266 253.13086 L 78.447266 243.23828 C 77.558516 243.16328 76.946484 243.06445 76.333984 243.06445 C 61.613984 243.05445 46.893828 243.01547 32.173828 243.10547 C 30.107578 243.11797 28.043516 243.77742 25.978516 244.13867 C 25.997266 244.37242 26.015859 244.60945 26.037109 244.8457 L 72.65625 244.8457 C 72.6875 245.02695 72.719453 245.20812 72.751953 245.39062 C 65.755703 250.22814 58.756328 255.06617 51.330078 260.20117 C 56.068828 261.06867 60.306875 261.85844 64.546875 262.61719 C 93.250625 267.75594 121.9575 272.87523 150.65625 278.02148 C 181.06875 283.47648 211.47352 288.96477 241.88477 294.41602 C 274.08477 300.18852 306.29094 305.92125 338.49219 311.6875 C 365.55969 316.53625 392.6225 321.41023 419.6875 326.27148 C 444.88625 330.79648 470.08195 335.32305 495.2832 339.8418 C 520.3282 344.3343 545.37437 348.81984 570.42188 353.30859 C 596.55561 357.98984 622.68672 362.68445 648.82422 367.3457 C 654.34422 368.32945 659.88367 369.95352 665.41992 369.97852 C 682.41867 370.05102 699.42309 369.54727 716.42188 369.16602 C 734.92188 368.75352 753.41977 368.28023 771.91602 367.74023 C 788.43477 367.25773 804.95344 366.7843 821.46094 366.06055 C 846.73844 364.9543 872.01234 363.7407 897.27734 362.37695 C 915.59234 361.3882 933.91266 360.34117 952.19141 358.85742 C 975.51516 356.96242 998.81593 354.75453 1022.0977 352.39453 C 1044.3589 350.13828 1066.5086 347.00789 1088.4062 342.33789 C 1101.3383 339.57914 1114.0909 336.16469 1125.8809 329.99219 C 1128.9084 328.40594 1131.7223 326.21953 1134.2148 323.86328 C 1136.4848 321.71328 1136.2902 319.0818 1133.9727 316.9668 C 1132.2527 315.39305 1130.2723 313.82289 1128.1211 313.05664 C 1121.7423 310.77664 1115.3263 308.42711 1108.7363 306.94336 C 1083.2138 301.20336 1057.2189 298.82812 1031.1914 296.95312 C 1006.8114 295.19687 982.48586 293.00555 958.41211 288.68555 C 952.69336 287.65805 947.02436 286.03859 941.54688 284.08984 C 937.47438 282.63859 937.26117 278.86016 940.91992 276.53516 C 943.21992 275.07266 945.83461 273.9825 948.44336 273.15625 C 958.39086 270.0075 968.77023 269.44984 979.05273 268.27734 C 983.58648 267.76109 988.08398 266.84156 992.55273 265.88281 C 993.41148 265.70031 994.05633 264.49406 994.79883 263.75781 C 993.97633 263.16531 993.21086 262.17797 992.31836 262.04297 C 987.71086 261.35297 983.08711 260.61797 978.44336 260.38672 C 965.80961 259.76422 953.16219 259.39648 940.52344 258.89648 C 939.51594 258.85528 938.51883 258.56687 937.51758 258.39062 C 937.52058 258.10938 937.52244 257.82812 937.52344 257.54688 C 941.57844 256.80187 945.63391 256.05484 949.69141 255.30859 C 949.64391 254.94984 949.59971 254.59117 949.55469 254.23242 C 939.22219 254.52617 928.89234 254.97578 918.55859 255.08203 C 904.37734 255.22953 890.80859 256.76445 887.74609 259.00195 C 888.80359 259.1307 889.64664 259.30992 890.49414 259.32617 C 899.66664 259.51117 908.84047 259.64086 918.01172 259.84961 C 922.35672 259.94711 926.71031 260.05984 931.03906 260.43359 C 932.36031 260.54859 933.60742 261.55695 934.88867 262.1582 C 933.83117 263.32945 932.80906 264.53609 931.69531 265.65234 C 931.39531 265.95484 930.83695 266.05672 930.37695 266.13672 C 927.7357 266.59672 925.09641 267.32984 922.44141 267.40234 C 911.85016 267.69734 901.2532 267.93555 890.6582 267.9043 C 871.8832 267.8481 853.18648 269.01065 834.58398 271.39062 C 827.08023 272.34812 819.66953 274.04438 812.23828 275.51562 C 810.94328 275.77438 809.75844 276.58562 808.52344 277.14062 C 808.52744 277.39312 808.52825 277.64594 808.53125 277.89844 C 809.59625 278.48219 810.59938 279.25719 811.73438 279.61719 C 816.10063 280.99844 820.52078 282.20414 824.89453 283.55664 C 828.58578 284.69664 832.31258 285.77469 835.89258 287.21094 C 838.83633 288.39219 838.96594 290.03617 836.24219 291.70117 C 834.19219 292.95492 831.85492 293.93687 829.51367 294.48438 C 820.36367 296.62811 811.16852 298.58203 801.97852 300.55078 C 792.01352 302.68578 782.12367 305.48555 772.04492 306.68555 C 757.54492 308.4118 742.91211 309.63547 728.31836 309.85547 C 701.66836 310.25797 674.99336 310.20523 648.34961 309.52148 C 623.62086 308.88523 598.89234 307.54445 574.21484 305.81445 C 555.69609 304.5182 537.24477 302.21734 518.79102 300.12109 C 514.51102 299.63484 510.29109 298.3393 506.15234 297.06055 C 504.88234 296.6643 503.16211 295.17852 503.03711 294.04102 C 502.38336 287.99977 498.99602 284.19961 493.79102 281.78711 C 485.63852 278.01336 477.06602 275.13477 468.19727 274.22852 C 449.88227 272.35852 431.49016 271.26594 413.12891 269.83594 C 399.02516 268.73719 384.91977 267.64844 370.82227 266.46094 C 368.87852 266.29719 366.93383 265.72539 365.08008 265.08789 C 364.23633 264.79414 363.60977 263.87328 362.88477 263.23828 C 363.63227 262.73328 364.33133 262.12477 365.14258 261.75977 C 365.84633 261.44227 366.66992 261.31516 367.45117 261.25391 C 372.09992 260.89516 376.74875 260.48555 381.40625 260.2793 C 384.9 260.12305 388.40891 260.24805 391.91016 260.24805 C 391.91116 259.9993 391.91016 259.75406 391.91016 259.50781 C 361.42766 255.23906 330.94469 250.96805 300.58594 246.7168 L 300.58594 214.27734 C 301.19344 214.24234 301.65328 214.19945 302.11328 214.18945 C 313.97328 213.9332 325.83141 213.66859 337.69141 213.43359 C 354.53391 213.10484 371.37625 212.79508 388.21875 212.48633 C 414.31375 212.00508 440.40891 211.53469 466.50391 211.05469 C 483.26766 210.74719 500.02922 210.41883 516.79297 210.11133 C 543.12672 209.63133 569.45781 209.15734 595.78906 208.68359 C 610.02406 208.42734 624.25719 207.98555 638.49219 207.99805 C 647.49219 208.00505 656.51367 206.47086 665.51367 208.44336 C 669.20242 209.25336 673.03008 209.43516 676.79883 209.87891 C 690.84883 211.52766 704.90117 213.1532 718.95117 214.81445 C 732.99867 216.47445 747.03984 218.1843 761.08984 219.8418 C 775.13859 221.5018 789.19609 223.11078 803.24609 224.76953 C 818.54609 226.57453 833.84086 228.41352 849.31836 230.25977 C 849.55961 229.83727 849.74414 229.57852 849.86914 229.29102 C 850.21289 228.49477 850.54008 227.69031 850.86133 226.88281 C 856.84508 211.81406 859.38086 196.17219 858.53711 179.99219 C 858.45331 178.39719 859.49727 176.42969 857.41602 175.24219 C 857.28977 175.16849 857.29088 174.58625 857.42969 174.375 C 858.91844 172.13 858.89078 172.17703 857.08203 170.39453 C 854.37703 167.73453 851.7725 164.97547 849.0625 162.32422 C 835.77625 149.32922 822.91609 135.86055 809.08984 123.4668 C 763.39795 82.500817 717.35727 41.926328 671.44727 1.2050781 C 671.09727 0.89507849 670.70359 0.42609375 670.30859 0.40234375 C 668.21516 0.27671875 666.09139 -0.01429688 664.00586 0 z M 667.25 164.39453 C 668.31625 164.31203 669.44484 164.58711 670.49609 164.88086 C 710.36734 175.97461 750.23141 187.08687 790.09766 198.20312 C 805.00766 202.3594 819.91117 206.54164 834.82617 210.68164 C 836.17867 211.05789 837.34711 211.37141 836.25586 213.31641 C 829.71961 211.50266 823.19102 209.69516 816.66602 207.87891 C 767.89477 194.29766 719.12875 180.69969 670.34375 167.17969 C 668.5725 166.68719 666.58797 166.69609 664.73047 166.83984 C 650.30672 167.95359 635.89 169.15758 621.46875 170.33008 C 606.81375 171.52133 592.15625 172.70969 577.5 173.89844 C 562.68625 175.10094 547.87109 176.3 533.05859 177.5 C 518.47984 178.68 503.90297 179.85445 489.32422 181.0332 C 472.46047 182.39695 455.60008 183.76836 438.73633 185.13086 C 426.20633 186.14336 413.67594 187.14055 401.14844 188.1543 C 384.44344 189.50555 367.7382 190.87516 351.0332 192.22266 C 336.2982 193.41141 321.56117 194.5769 306.82617 195.76562 C 299.96992 196.31689 293.11547 196.89703 286.26172 197.45703 C 285.55922 197.51453 284.85492 197.54473 284.16992 197.58594 C 283.29742 195.95844 283.88586 195.4043 285.47461 195.2793 C 299.74211 194.16305 314.00703 193.025 328.26953 191.875 C 344.97578 190.52875 361.67852 189.15539 378.38477 187.80664 C 393.11977 186.61664 407.85875 185.46008 422.59375 184.26758 C 439.22 182.92133 455.8432 181.54727 472.4707 180.19727 C 485.07695 179.17352 497.68617 178.17055 510.29492 177.1543 C 524.95117 175.9718 539.60742 174.78 554.26367 173.59375 C 568.91992 172.4075 583.57617 171.22852 598.23242 170.04102 C 613.04617 168.83977 627.85867 167.63953 642.66992 166.42578 C 650.86367 165.75203 659.05375 165.02078 667.25 164.39453 z "
             transform="matrix(0.8,0,0,-0.8,-227.2944,168.39116)"
             id="path30" /></g><g
           id="g32"
           transform="translate(565.2329,322.5205)"><path
             d="m 0,0 c 0.105,0.448 0.208,0.686 0.21,0.923 0.013,7.527 -0.007,15.054 0.04,22.579 0.008,1.451 -0.838,1.418 -1.85,1.417 -10.119,-0.012 -20.24,-0.034 -30.358,0.024 -1.499,0.009 -1.957,-0.453 -1.94,-1.933 0.065,-6.325 0.063,-12.651 0.001,-18.974 -0.015,-1.474 0.468,-1.913 1.945,-1.995 C -25.01,1.653 -18.077,1.12 -11.139,0.661 -7.439,0.416 -3.734,0.22 0,0 m 7.476,26.962 0,-30.578 c 15.899,-0.998 31.649,-1.987 47.482,-2.982 l 0,34.952 C 39.052,27.888 23.285,27.424 7.476,26.962 m 57.346,1.476 0,-35.152 c 20.614,-1.1 41.095,-2.192 61.687,-3.29 0.087,1.062 0.181,1.869 0.214,2.678 0.469,11.052 0.936,22.103 1.39,33.154 0.107,2.603 0.086,2.609 -2.491,2.609 -19.482,0.003 -38.964,10e-4 -58.447,10e-4 l -2.353,0 z m 106.102,3.229 0,-54.953 C 77.265,-14.274 -16.265,-5.274 -109.939,3.74 l 0,23.902 c 2.087,0 4.211,-0.024 6.334,0.004 9.235,0.119 18.469,0.25 27.704,0.378 18.219,0.254 36.439,0.505 54.657,0.764 14.864,0.211 29.729,0.435 44.594,0.65 19.734,0.288 39.467,0.571 59.201,0.86 14.674,0.217 29.35,0.431 44.024,0.667 13.978,0.222 27.955,0.468 41.933,0.7 0.751,0.014 1.502,0.002 2.416,0.002"
             style="fill:#960510;fill-opacity:1;fill-rule:evenodd;stroke:none"
             id="path34"
             inkscape:connector-curvature="0" /></g><g
           id="g36"
           transform="translate(739.3311,299.2197)"><path
             d="M 0,0 C 0.733,18.351 1.465,36.584 2.199,54.957 50.79,49.292 99.134,43.656 147.584,38.008 l 0,-15.719 C 98.444,14.868 49.323,7.448 0,0"
             style="fill:#960510;fill-opacity:1;fill-rule:evenodd;stroke:none"
             id="path38"
             inkscape:connector-curvature="0" /></g><g
           id="g40"
           transform="translate(451.4214,409.0176)"><path
             style="fill:#960510;fill-opacity:1;fill-rule:evenodd;stroke:none"
             d="M 676.13086 34.041016 C 674.92713 34.091146 673.43352 34.533125 671.05273 35.234375 C 620.59773 50.103125 570.1418 64.982266 519.68555 79.853516 C 437.87695 103.92188 364.39139 125.65557 292.3418 146.88672 L 292.35547 146.89453 C 290.63872 147.40507 288.92432 147.92327 287.19531 148.38672 C 285.83906 148.74922 284.26508 149.97297 283.23633 147.76172 C 283.14133 147.55422 282.5132 147.5675 282.12695 147.53125 C 280.2382 147.3525 278.34773 147.18398 276.45898 147.02148 C 261.02148 145.69398 245.59633 144.17555 230.14258 143.0918 C 213.42883 141.9168 196.69133 140.47273 179.95508 140.33398 C 134.30633 139.95523 88.649844 140.20273 42.996094 140.20898 C 42.188594 140.20898 41.379766 140.28878 40.572266 140.33008 C 40.486016 140.53258 40.39875 140.73555 40.3125 140.93555 C 53.07125 153.32305 65.828359 165.71078 78.443359 177.95703 C 78.374609 178.20453 78.453125 178.05159 78.453125 177.90039 C 78.471875 173.78539 78.487734 169.67234 78.490234 165.55859 C 78.496434 159.24734 78.490938 159.30117 84.773438 159.45117 C 86.360938 159.48737 86.794141 160.04883 86.775391 161.54883 C 86.707891 166.53383 86.742286 171.51891 86.759766 176.50391 C 86.763466 177.33141 86.875469 178.15953 86.949219 179.14453 L 89.3125 179.14453 C 130.77375 179.14453 172.23531 179.14849 213.69531 179.12109 C 214.85906 179.12009 216.06148 178.91047 217.17773 178.57422 C 226.63023 175.73297 236.06391 172.84484 245.50391 169.96484 C 250.86641 168.32859 256.17867 166.50016 261.60742 165.12891 C 264.47867 164.40391 266.13703 163.33219 265.55078 160.14844 C 265.52958 160.03844 265.69609 159.89406 265.93359 159.50781 C 268.60109 160.19906 271.8707 157.88742 274.3457 161.16992 C 276.8832 160.40242 279.52922 159.61758 282.16797 158.79883 C 282.68172 158.63758 283.59383 158.31469 283.58008 158.11719 C 283.45883 156.32094 284.89148 156.62906 285.83398 156.38281 C 324.7893 146.3768 367.45166 135.37541 403.94922 126.20508 C 404.43837 126.08245 404.91221 125.94515 405.37695 125.79883 L 587.75195 79.208984 L 588.58398 73.974609 L 411.89648 121.45898 L 398.17773 125.14453 L 394.33789 126.17578 C 356.19147 136.43006 322.39123 145.5047 285.97461 155.25586 C 284.00711 155.78336 284.00437 155.76852 283.79688 153.63477 C 324.37291 142.62092 371.82721 129.97568 409.08398 119.96484 L 477.18164 101.65625 C 542.74475 84.028469 608.30811 66.400238 673.86719 48.753906 C 675.57844 48.293906 676.98203 48.343594 678.39453 49.621094 C 680.15328 51.213594 682.11023 52.585469 684.20898 54.230469 C 684.35898 50.526719 684.43047 47.855936 681.01172 45.273438 C 679.20609 43.911563 677.58289 43.208672 675.91602 42.986328 C 675.4993 42.930738 675.07997 42.90458 674.6543 42.90625 C 673.37729 42.91125 672.04414 43.162031 670.56055 43.582031 C 613.1993 59.844531 555.80602 75.995859 498.41602 92.162109 C 421.46493 114.26343 355.98334 131.75106 285.79688 152.0957 C 284.29438 152.53195 283.50914 152.28828 283.71289 150.42578 C 287.00638 149.4878 290.31171 148.54613 293.61523 147.60547 L 293.77344 147.56055 C 321.59182 139.68006 351.20452 131.40115 375.36133 124.5957 C 458.38008 101.20195 541.39727 77.807656 624.41602 54.410156 C 640.91352 49.761406 657.41758 45.135 673.89258 40.40625 C 676.05633 39.785 677.76391 39.757109 679.41016 41.505859 C 680.60516 42.778359 682.07031 43.803047 683.41406 44.935547 C 683.51276 42.303047 684.81055 39.621094 682.49805 37.652344 C 679.33711 34.960938 678.13707 33.957458 676.13086 34.041016 z M 674.08594 68.013672 C 673.39751 67.986542 672.67609 68.081172 671.89844 68.271484 L 321.05859 153.3125 C 314.99234 154.795 309.01148 156.62102 302.99023 158.29102 C 303.04523 158.49102 303.09734 158.69469 303.15234 158.89844 C 307.44234 157.92094 311.73539 156.9468 316.02539 155.9668 L 673.05469 74.261719 C 673.97969 74.051719 675.23547 74.268719 676.04297 74.763672 C 679.10797 76.637422 682.05289 78.709297 685.52539 81.029297 C 685.42289 78.955547 685.50699 77.367266 685.20703 75.853516 C 685.03203 74.974766 684.41195 73.981172 683.68945 73.451172 C 681.65945 71.964922 679.36016 70.834766 677.37891 69.291016 C 676.50828 68.612891 675.6568 68.230937 674.76367 68.082031 C 674.54039 68.044801 674.31541 68.022712 674.08594 68.013672 z M 587.37695 81.572266 L 585.24414 82.117188 L 405.69336 127.9668 C 405.69381 127.9658 405.69531 127.96489 405.69531 127.96289 C 383.09681 133.73592 360.77257 139.43908 338.44531 145.14453 C 336.46043 145.65174 334.4515 146.16468 332.4668 146.67188 L 324.09766 148.81055 C 324.11524 148.80332 324.13281 148.7963 324.15039 148.78906 C 318.56416 150.21861 312.9787 151.64884 307.39258 153.07812 C 300.06894 154.95198 292.74494 156.82502 285.42188 158.69922 C 285.48813 159.01172 285.5568 159.32227 285.62305 159.63477 C 291.60842 158.14016 297.63409 156.7977 303.61523 155.28711 L 303.59375 155.29883 L 345.76953 145.05469 L 345.73438 145.05469 C 364.41199 140.56069 383.07654 136.02098 401.76172 131.57031 C 402.03215 131.50591 402.28624 131.43131 402.5293 131.34961 L 586.55273 86.753906 L 587.37695 81.572266 z "
             transform="matrix(0.8,0,0,-0.8,-238.2456,117.12946)"
             id="path42" /></g><g
           id="g44"
           transform="translate(311.9697,355.3223)"><path
             d="m 0,0 0,-23.028 -29.277,0 0,44.602 98.704,0 0,-44.585 -22.77,0 L 46.657,0 0,0 Z"
             style="fill:#960510;fill-opacity:1;fill-rule:evenodd;stroke:none"
             id="path46"
             inkscape:connector-curvature="0" /></g><path
           d="m 240.704,376.936 35.134,0 0,-44.591 -35.134,0 0,44.591 z"
           style="fill:#960510;fill-opacity:1;fill-rule:evenodd;stroke:none"
           id="path48"
           inkscape:connector-curvature="0" /><g
           id="g50"
           transform="translate(455.6953,411.1777)" /><g
           id="g54"
           transform="translate(462.9253,410.418)"><path
             style="fill:#960510;fill-opacity:1;fill-rule:evenodd;stroke:none"
             d="M 477.18164 101.65625 L 409.08398 119.96484 C 411.54844 119.30259 414.01414 118.64494 416.47852 117.98242 C 436.71371 112.54333 456.94697 107.09669 477.18164 101.65625 z "
             id="path4665"
             transform="matrix(0.8,0,0,-0.8,-249.7495,115.72906)" /></g><g
           id="g58"
           transform="translate(763.9404,406.792)" /><g
           id="g62"
           transform="translate(557.792,393.25)" /><g
           id="g66"
           transform="translate(561.0371,398.0098)" /><g
           id="g70"
           transform="translate(762.8379,427.019)" /><g
           id="g74"
           transform="translate(760.8789,475.5244)"><path
             d="m 0,0 c -2.081,1.572 -3.906,2.903 -5.675,4.304 -0.912,0.722 -1.775,0.902 -2.948,0.602 -31.948,-8.21 -63.905,-16.383 -95.862,-24.554 -28.408,-7.265 -56.807,-14.562 -85.245,-21.705 -2.299,-0.577 -4.867,-0.076 -7.404,0.338 0.529,0.191 1.049,0.421 1.59,0.566 61.638,16.559 123.28,33.098 184.903,49.711 2.653,0.714 4.854,0.79 6.763,-1.407 C -3.594,7.528 -3.219,7.206 -2.821,7.063 0.62,5.824 0.14,3.019 0,0"
             style="fill:#960510;fill-opacity:1;fill-rule:evenodd;stroke:none"
             id="path76"
             inkscape:connector-curvature="0" /></g><g
           id="g78"
           transform="translate(570.7627,429.8257)"><path
             d="m 0,0 c -0.552,1.803 0.121,2.467 1.74,2.877 42.918,10.912 85.825,21.867 128.734,32.824 16.218,4.14 32.443,8.262 48.637,12.496 2.494,0.653 4.574,0.759 6.539,-1.208 0.915,-0.914 2.269,-1.373 3.277,-2.216 0.612,-0.511 1.17,-1.306 1.346,-2.068 0.278,-1.199 0.213,-2.477 0.325,-4.202 -1.807,1.288 -3.387,2.183 -4.68,3.386 -2.191,2.043 -4.422,2.011 -7.231,1.323 C 144.818,34.909 110.914,26.748 77.022,18.543 65.978,15.87 54.938,13.179 43.896,10.496 33.842,8.053 23.789,5.606 13.734,3.165 9.502,2.136 5.268,1.116 1.032,0.103 0.731,0.03 0.408,0.039 0,0"
             style="fill:#960510;fill-opacity:1;fill-rule:evenodd;stroke:none"
             id="path80"
             inkscape:connector-curvature="0" /></g><g
           id="g82"
           transform="translate(761.5957,461.3237)" /><g
           id="g86"
           transform="translate(762.7979,433.6494)" /><g
           id="g90"
           transform="translate(673.0068,431.813)" /><g
           id="g94"
           transform="translate(762.0752,447.5098)" /><g
           id="g98"
           transform="translate(761.7119,454.4668)" /><g
           id="g102"
           transform="translate(544.7476,387.4551)" /><g
           id="g106"
           transform="translate(430.2412,319.2666)"><path
             d="m 0,0 -2.714,0 0,50.282 2.69,0 0,-44.881 C -0.559,5.322 -1.106,5.239 -1.819,5.134 -1.139,5.057 -0.621,4.999 0,4.929 L 0,0 Z"
             style="fill:#960510;fill-opacity:1;fill-rule:evenodd;stroke:none"
             id="path108"
             inkscape:connector-curvature="0" /></g><g
           id="g110"
           transform="translate(534.0449,415.1792)" /><path
           d="m 280.627,332.239 -2.708,0 0,44.67 2.708,0 0,-44.67 z"
           style="fill:#960510;fill-opacity:1;fill-rule:evenodd;stroke:none"
           id="path114"
           inkscape:connector-curvature="0" /><g
           id="g116"
           transform="translate(441.8325,391.4492)" /><g
           id="g120"
           transform="translate(441.8726,388.8506)" /><g
           id="g124"
           transform="translate(442.0879,378.3877)" /><g
           id="g128"
           transform="translate(441.855,386.2344)" /><g
           id="g132"
           transform="translate(529.8394,399.0977)" /><g
           id="g136"
           transform="translate(442.0381,381.0449)" /><g
           id="g140"
           transform="translate(535.2441,419.1816)" /><g
           id="g144"
           transform="translate(542.6929,428.98)" /><g
           id="g148"
           transform="translate(537.7319,423.7769)" /><g
           id="g152"
           transform="translate(654.752,442.7554)" /><g
           id="g156"
           transform="translate(651.3877,436.668)" /><g
           id="g160"
           transform="translate(629.749,426.874)" /><g
           id="g164"
           transform="translate(627.9531,441.6357)" /><path
           d="m 277.902,396.646 2.746,0 0,-13.709 -2.746,0 0,13.709 z"
           style="fill:#960510;fill-opacity:1;fill-rule:evenodd;stroke:none"
           id="path168"
           inkscape:connector-curvature="0" /><g
           id="g170"
           transform="translate(622.1562,430.3345)" /><g
           id="g174"
           transform="translate(609.5303,419.7114)" /><g
           id="g178"
           transform="translate(623.2686,435.5791)" /><g
           id="g182"
           transform="translate(587.8989,415.6353)" /><g
           id="g186"
           transform="translate(603.124,430.9604)" /><g
           id="g190"
           transform="translate(653.3828,422.5557)" /><g
           id="g194"
           transform="translate(648.3057,443.2939)" /><g
           id="g198"
           transform="translate(441.5137,399.1875)" /><g
           id="g202"
           transform="translate(555.6045,399.4766)" /><g
           id="g206"
           transform="translate(572.3306,408.3242)" /><g
           id="g210"
           transform="translate(582.6743,426.2866)" /><g
           id="g214"
           transform="translate(580.8193,416.9478)" /><g
           id="g218"
           transform="translate(573.123,417.2139)" /><g
           id="g222"
           transform="translate(554.3569,395.1406)" /><path
           d="m 277.9,328.775 2.759,0 0,-6.222 -2.759,0 0,6.222 z"
           style="fill:#960510;fill-opacity:1;fill-rule:evenodd;stroke:none"
           id="path226"
           inkscape:connector-curvature="0" /><g
           id="g228"
           transform="translate(569.042,431.1714)"><path
             d="m 0,0 c -0.471,-0.741 -0.827,-1.994 -1.433,-2.131 -2.259,-0.507 -4.494,-1.911 -7.323,-1.003 2.484,2.688 5.502,2.765 8.213,3.596 C -0.362,0.308 -0.181,0.154 0,0"
             style="fill:#960510;fill-opacity:1;fill-rule:evenodd;stroke:none"
             id="path230"
             inkscape:connector-curvature="0" /></g><g
           id="g232"
           transform="translate(596.1572,421.8545)" /><g
           id="g236"
           transform="translate(551.0356,410.9395)" /><g
           id="g240"
           transform="translate(556.8989,407.9629)" /><g
           id="g244"
           transform="translate(602.8867,413.6855)" /><g
           id="g248"
           transform="translate(557.5615,420.2437)" /><g
           id="g252"
           transform="translate(551.2676,412.7812)" /><g
           id="g256"
           transform="translate(549.4258,400.2246)" /><g
           id="g260"
           transform="translate(556.5059,403.4687)" /><g
           id="g264"
           transform="translate(625.2412,417.6016)" /><g
           id="g268"
           transform="translate(541.8281,402.9482)" /><g
           id="g272"
           transform="translate(540.5464,406.6445)" /><g
           id="g276"
           transform="translate(662.8281,438.8574)" /><g
           id="g280"
           transform="translate(557.6958,424.5234)" /><g
           id="g284"
           transform="translate(642.1777,424.0508)" /><g
           id="g288"
           transform="translate(564.2095,415.4497)" /><g
           id="g292"
           transform="translate(540.6865,410.6299)" /><g
           id="g296"
           transform="translate(531.543,393.5254)" /><g
           id="g300"
           transform="translate(564.3022,411.1641)" /><g
           id="g304"
           transform="translate(579.9888,427.7134)" /><g
           id="g308"
           transform="translate(563.9697,406.9619)" /><g
           id="g312"
           transform="translate(537.5693,392.5898)" /><g
           id="g316"
           transform="translate(566.0698,426.3521)"><path
             d="m 0,0 c -0.903,-0.873 -1.806,-1.745 -2.709,-2.617 -0.427,0.525 -0.853,1.05 -1.538,1.892 1.597,0.435 2.792,0.761 3.987,1.088 C -0.173,0.242 -0.086,0.122 0,0"
             style="fill:#960510;fill-opacity:1;fill-rule:evenodd;stroke:none"
             id="path318"
             inkscape:connector-curvature="0" /></g><g
           id="g320"
           transform="translate(568.1279,423.4614)" /><g
           id="g324"
           transform="translate(604.3608,435.6909)" /><g
           id="g328"
           transform="translate(534.563,397.791)" /><g
           id="g332"
           transform="translate(553.998,426.1167)"><path
             d="M 0,0 C 1.285,0.584 2.57,1.17 3.881,1.767 4.166,0.3 4.166,0.3 0,0"
             style="fill:#960510;fill-opacity:1;fill-rule:evenodd;stroke:none"
             id="path334"
             inkscape:connector-curvature="0" /></g><g
           id="g336"
           transform="translate(440.5112,365.2676)"><path
             d="m 0,0 c -0.698,1.303 -0.226,1.746 1.045,1.847 11.414,0.891 22.826,1.801 34.236,2.721 13.365,1.078 26.727,2.178 40.092,3.256 11.788,0.952 23.579,1.877 35.367,2.83 13.301,1.076 26.599,2.176 39.901,3.256 10.085,0.82 20.173,1.621 30.26,2.436 11.725,0.945 23.449,1.898 35.174,2.847 11.725,0.95 23.45,1.895 35.175,2.845 11.851,0.96 23.702,1.919 35.551,2.891 6.555,0.538 13.106,1.124 19.663,1.626 0.853,0.064 1.757,-0.158 2.598,-0.391 31.896,-8.875 63.788,-17.766 95.681,-26.657 11.928,-3.325 23.85,-6.671 35.782,-9.983 1.082,-0.3 2.017,-0.551 1.144,-2.108 -5.229,1.452 -10.452,2.896 -15.672,4.351 -39.017,10.864 -78.029,21.743 -117.057,32.56 -1.417,0.394 -3.005,0.386 -4.491,0.272 C 292.91,23.707 281.375,22.744 269.839,21.805 258.115,20.853 246.39,19.902 234.665,18.951 222.814,17.989 210.962,17.029 199.112,16.069 187.449,15.126 175.787,14.187 164.124,13.244 150.633,12.151 137.144,11.055 123.653,9.965 113.629,9.154 103.605,8.355 93.583,7.545 80.219,6.464 66.855,5.37 53.491,4.291 41.703,3.34 29.913,2.406 18.125,1.457 12.64,1.016 7.157,0.551 1.674,0.102 1.112,0.057 0.548,0.033 0,0"
             style="fill:#ffffff;fill-opacity:1;fill-rule:evenodd;stroke:none"
             id="path338"
             inkscape:connector-curvature="0" /></g><g
           id="g340"
           transform="translate(440.4712,362.7012)"><path
             d="m 0,0 c -0.584,1.22 -0.251,1.707 1.1,1.793 13.697,0.875 27.393,1.777 41.087,2.697 15.966,1.072 31.928,2.181 47.895,3.255 14.135,0.952 28.273,1.868 42.409,2.818 14.071,0.947 28.142,1.921 42.215,2.873 12.179,0.822 24.36,1.62 36.54,2.439 14.198,0.954 28.396,1.922 42.594,2.877 12.117,0.816 24.235,1.616 36.352,2.434 5.047,0.341 10.09,0.762 15.14,1.041 1.297,0.07 2.651,-0.12 3.92,-0.43 37.203,-9.09 74.399,-18.207 111.593,-27.324 6.505,-1.594 12.999,-3.234 19.515,-4.779 1.31,-0.311 1.642,-0.749 0.723,-1.967 -7.942,1.943 -15.908,3.892 -23.874,5.843 -35.968,8.811 -71.929,17.645 -107.916,26.373 -2.215,0.537 -4.644,0.462 -6.951,0.313 C 281.641,18.92 260.944,17.502 240.245,16.111 217.589,14.59 194.933,13.072 172.278,11.551 149.686,10.035 127.094,8.515 104.501,6.996 81.847,5.475 59.191,3.959 36.537,2.432 24.673,1.631 12.812,0.811 0.949,0.002 0.637,-0.02 0.323,0 0,0"
             style="fill:#ffffff;fill-opacity:1;fill-rule:evenodd;stroke:none"
             id="path342"
             inkscape:connector-curvature="0" /></g><g
           id="g344"
           transform="translate(440.3687,361.749)"><path
             d="m 0,0 c 4.746,0.277 9.412,0.566 14.08,0.815 18.631,0.998 37.263,1.984 55.896,2.97 15.537,0.821 31.075,1.628 46.611,2.459 20.653,1.105 41.303,2.23 61.955,3.339 16.546,0.889 33.093,1.768 49.64,2.65 16.61,0.887 33.221,1.769 49.83,2.668 8.967,0.485 17.928,1.162 26.902,1.414 2.966,0.084 5.988,-0.774 8.944,-1.397 41.865,-8.824 83.724,-17.68 125.58,-26.547 0.565,-0.118 1.495,-0.415 1.542,-0.735 0.178,-1.197 -0.582,-1.206 -1.566,-0.993 -6.919,1.489 -13.853,2.915 -20.778,4.378 -31.597,6.675 -63.196,13.357 -94.794,20.037 -4.821,1.019 -9.62,2.183 -14.477,2.992 -2.648,0.439 -5.407,0.482 -8.097,0.346 -20.655,-1.053 -41.305,-2.2 -61.956,-3.309 C 222.765,10.198 206.218,9.319 189.671,8.436 173.062,7.548 156.452,6.66 139.841,5.771 123.231,4.884 106.622,3.995 90.011,3.108 73.464,2.224 56.917,1.335 40.369,0.46 27.42,-0.226 14.472,-0.879 1.526,-1.59 0.397,-1.653 -0.417,-1.702 0,0"
             style="fill:#ffffff;fill-opacity:1;fill-rule:evenodd;stroke:none"
             id="path346"
             inkscape:connector-curvature="0" /></g><g
           id="g348"
           transform="translate(440.4614,359.1982)"><path
             d="m 0,0 c 10.55,0.407 21.102,0.798 31.651,1.223 20.474,0.825 40.946,1.684 61.42,2.502 14.597,0.581 29.198,1.094 43.794,1.678 20.536,0.819 41.071,1.692 61.609,2.51 14.471,0.579 28.945,1.082 43.416,1.664 20.789,0.836 41.572,1.817 62.365,2.473 3.787,0.119 7.632,-0.913 11.42,-1.579 18.986,-3.34 37.963,-6.734 56.942,-10.111 19.601,-3.487 39.202,-6.977 58.803,-10.466 2.91,-0.518 5.818,-1.033 8.719,-1.547 -0.259,-1.644 -0.262,-1.667 -1.702,-1.413 -14.875,2.633 -29.749,5.273 -44.623,7.913 -18.856,3.344 -37.714,6.689 -56.57,10.035 -9.582,1.7 -19.131,3.648 -28.762,4.989 -4.518,0.63 -9.201,0.206 -13.804,0.057 C 282.986,9.544 271.295,9.062 259.603,8.591 239.131,7.767 218.659,6.912 198.187,6.092 186.811,5.638 175.433,5.248 164.058,4.792 143.459,3.969 122.861,3.104 102.262,2.282 87.98,1.713 73.698,1.2 59.416,0.638 41.09,-0.084 22.764,-0.829 4.44,-1.562 3.301,-1.607 2.151,-1.739 1.03,-1.612 0.502,-1.552 0.032,-0.976 -0.464,-0.635 -0.309,-0.423 -0.155,-0.211 0,0"
             style="fill:#ffffff;fill-opacity:1;fill-rule:evenodd;stroke:none"
             id="path350"
             inkscape:connector-curvature="0" /></g><g
           id="g352"
           transform="translate(440.4702,354.9463)"><path
             d="m 0,0 c -0.546,1.339 0.037,1.653 1.145,1.677 5.058,0.109 10.116,0.24 15.174,0.378 16.881,0.458 33.761,0.94 50.641,1.377 12.711,0.329 25.423,0.577 38.133,0.907 16.629,0.432 33.256,0.93 49.884,1.364 12.647,0.33 25.296,0.584 37.942,0.914 16.755,0.438 33.507,0.937 50.262,1.372 12.71,0.33 25.422,0.589 38.131,0.908 6.828,0.171 13.658,0.661 20.478,0.52 5.217,-0.105 10.44,-0.82 15.625,-1.534 12.712,-1.753 25.404,-3.673 38.107,-5.503 13.641,-1.968 27.287,-3.904 40.929,-5.867 13.705,-1.972 27.406,-3.957 41.107,-5.942 0.606,-0.087 1.204,-0.217 1.817,-0.331 -0.027,-1.321 -0.515,-1.625 -1.681,-1.455 -26.527,3.864 -53.057,7.702 -79.589,11.523 C 340.959,2.776 323.83,5.378 306.647,7.552 301.616,8.188 296.425,7.622 291.31,7.507 282.014,7.3 272.721,7.021 263.427,6.767 246.672,6.308 229.917,5.825 213.164,5.39 200.454,5.06 187.741,4.812 175.03,4.481 158.402,4.05 141.775,3.554 125.148,3.12 112.438,2.789 99.727,2.535 87.017,2.202 70.327,1.767 53.638,1.269 36.947,0.836 24.934,0.524 12.917,0.276 0.903,0.001 0.6,-0.005 0.296,0 0,0"
             style="fill:#ffffff;fill-opacity:1;fill-rule:evenodd;stroke:none"
             id="path354"
             inkscape:connector-curvature="0" /></g><g
           id="g356"
           transform="translate(630.0547,350.959)"><path
             d="m 0,0 2.354,0 c 19.482,0 38.964,0.002 58.446,-0.001 2.577,0 2.598,-0.007 2.491,-2.609 -0.454,-11.051 -0.921,-22.103 -1.39,-33.155 -0.033,-0.808 -0.127,-1.616 -0.213,-2.677 -20.592,1.097 -41.074,2.189 -61.688,3.29 L 0,0 Z"
             style="fill:#ffffff;fill-opacity:1;fill-rule:evenodd;stroke:none"
             id="path358"
             inkscape:connector-curvature="0" /></g><g
           id="g360"
           transform="translate(572.709,349.4824)"><path
             d="m 0,0 c 15.809,0.462 31.576,0.926 47.481,1.392 l 0,-34.952 C 31.648,-32.564 15.899,-31.576 0,-30.578 L 0,0 Z"
             style="fill:#ffffff;fill-opacity:1;fill-rule:evenodd;stroke:none"
             id="path362"
             inkscape:connector-curvature="0" /></g><g
           id="g364"
           transform="translate(565.2329,322.5205)"><path
             d="m 0,0 c -3.734,0.22 -7.439,0.416 -11.139,0.661 -6.938,0.459 -13.871,0.992 -20.813,1.38 -1.477,0.082 -1.96,0.521 -1.945,1.995 0.062,6.323 0.064,12.649 -0.001,18.974 -0.017,1.48 0.441,1.942 1.94,1.933 10.118,-0.058 20.239,-0.036 30.358,-0.024 1.012,0.001 1.858,0.034 1.85,-1.417 C 0.203,15.977 0.223,8.45 0.21,0.923 0.208,0.686 0.105,0.448 0,0"
             style="fill:#ffffff;fill-opacity:1;fill-rule:evenodd;stroke:none"
             id="path366"
             inkscape:connector-curvature="0" /></g></g></g><g
       id="g4621"
       transform="matrix(0.28946265,0.03953686,0,0.28946265,465.44911,196.85164)"
       style="fill:#ffffff"><g
         id="g4623"
         transform="translate(229.78244,651.8267)"
         style="fill:#ffffff"><path
           d="m 0,0 8.208,-24.722 35.039,1.06 c 0.741,0.018 2.064,0.137 3.94,0.381 1.855,0.284 3.955,1.091 6.206,2.445 2.3,1.36 4.556,3.481 6.811,6.383 2.245,2.887 4.147,6.968 5.771,12.271 l 11.932,42.308 0.06,0.132 16.183,57.374 -30.668,-0.931 c 5.377,0.207 9.97,0.75 13.726,1.921 4.352,1.34 8.101,3.259 11.211,5.748 3.149,2.495 5.856,5.53 8.142,9.079 0.254,0.419 0.53,0.845 0.805,1.279 1.023,1.615 2.033,3.334 3.072,5.143 l -8.055,-0.242 -2.163,-0.06 -3.598,-0.114 -24.318,-0.75 L 32.669,1.439 21.015,35.929 2.056,93.924 c -4.084,-3.765 -7.024,-6.918 -9.588,-9.957 -3.39,-3.956 -6.001,-8.135 -7.757,-12.569 -0.402,-1.064 -0.781,-2.143 -1.081,-3.26 -0.014,-0.072 -0.025,-0.159 -0.051,-0.236 -0.945,-3.449 -1.344,-7.148 -1.277,-11.128 0.138,-4.56 1.346,-9.792 3.254,-15.758 L -12.341,34.859 -0.687,1.561 -0.606,1.325 -0.142,0.003 0,0 Z"
           style="fill:#ffffff;fill-opacity:1;fill-rule:nonzero;stroke:none"
           id="path4625"
           inkscape:connector-curvature="0" /></g><g
         id="g4627"
         transform="translate(480.57004,648.1636)"
         style="fill:#ffffff"><path
           d="m 0,0 c -0.174,-0.681 -0.283,-1.153 -0.438,-1.632 -1.868,-5.916 -3.774,-11.805 -5.654,-17.693 -0.18,-0.587 -0.506,-0.785 -1.075,-0.844 -3.602,-0.37 -7.093,-0.823 -10.683,-1.124 -3.275,-0.278 -6.564,-0.476 -9.875,-0.57 -4.821,-0.122 -9.651,-0.238 -14.515,-0.122 -4.419,0.081 -8.846,0.453 -13.235,0.792 -2.079,0.161 -4.189,0.436 -6.19,0.837 -2.783,0.553 -5.038,1.954 -6.998,3.756 -3.528,3.194 -5.182,7.165 -6.071,11.452 -0.387,2.115 -0.713,4.282 -0.713,6.441 0,3.143 0.773,6.199 1.438,9.283 1.731,7.983 3.848,15.88 7.005,23.514 2.171,5.174 4.556,10.255 7.863,14.927 2.157,3.001 4.552,5.824 7.557,8.164 3.098,2.474 6.52,4.529 10.599,5.525 1.612,0.393 3.276,0.724 4.931,0.977 0.753,0.098 1.567,-0.085 2.331,-0.085 19.698,-10e-4 39.377,-10e-4 59.11,-10e-4 l 1.379,0 C 25.874,62.118 25.078,60.807 24.231,59.545 22.254,56.5 20.046,53.595 17.18,51.172 13.129,47.813 8.395,45.728 3.01,44.885 1.582,44.661 0.159,44.352 -1.24,44.237 c -1.208,-0.087 -2.417,0.069 -3.643,0.069 -6.9,0.01 -13.819,0.01 -20.75,0 -3.242,0 -5.749,-1.166 -7.308,-3.786 -1.09,-1.822 -2.196,-3.639 -3.22,-5.472 -0.759,-1.365 -1.429,-2.774 -2.216,-4.333 l 36.88,0 c -0.601,-1.828 -1.146,-3.482 -1.695,-5.145 -1.087,-3.234 -2.22,-6.45 -3.248,-9.676 -0.252,-0.659 -0.54,-0.878 -1.305,-0.878 -11.596,0.021 -23.166,0.01 -34.735,0.01 -1.503,0 -1.531,-0.01 -1.764,-1.279 -0.527,-2.763 -1.072,-5.503 -1.53,-8.276 -0.249,-1.499 -0.29,-3.013 1.072,-4.203 1.291,-1.148 2.79,-1.836 4.716,-1.922 1.218,-0.041 2.489,-0.301 3.72,-0.396 1.92,-0.168 3.805,-0.243 5.71,-0.381 0.492,-0.044 0.967,-0.225 1.463,-0.225 4.247,-0.033 8.427,-0.136 12.686,-0.104 2.147,0.032 4.276,0.285 6.451,0.504 2.976,0.291 5.926,0.624 8.944,0.971 C -0.774,-0.268 -0.495,-0.162 0,0"
           style="fill:#ffffff;fill-opacity:1;fill-rule:evenodd;stroke:none"
           id="path4629"
           inkscape:connector-curvature="0" /></g><g
         id="g4631"
         transform="translate(720.17994,691.0015)"
         style="fill:#ffffff"><path
           d="m 0,0 0,-8.961 c 0,-9.911 -0.016,-10.912 0,-20.803 0,-0.791 -0.177,-1.071 -1.145,-1.071 -6.244,0.033 -12.546,0.018 -18.848,0.018 -0.326,0 -0.634,0.039 -1.179,0.077 7.026,11.349 13.969,22.543 20.914,33.727 0.081,-0.029 0.137,-0.044 0.17,-0.071 C -0.016,2.658 0,2.375 0.034,2.092 6.17,3.021 11.32,5.443 15.63,9.418 c 2.479,2.266 4.321,4.928 6.142,7.609 0.787,1.119 1.474,2.263 2.284,3.522 l -1.321,0 c -8.092,0 -16.126,-0.01 -24.171,0.03 -1.474,0 -2.958,-0.132 -4.387,-0.465 -3.461,-0.797 -6.359,-2.51 -9.072,-4.546 -3.466,-2.64 -6.33,-5.773 -8.726,-9.305 -7.144,-10.709 -14.315,-21.452 -21.451,-32.189 -6.539,-9.828 -13.064,-19.654 -19.619,-29.502 -1.643,-2.483 -3.244,-4.954 -5.038,-7.596 l 1.233,0 c 8.63,0 17.272,0.017 25.872,-0.034 0.913,0 1.356,0.308 1.755,0.948 3.42,5.47 6.867,10.876 10.311,16.329 0.33,0.562 0.758,0.703 1.415,0.703 9.15,-0.026 18.313,-0.026 27.456,-0.026 0.307,0 0.679,-0.019 1.118,-0.042 l 0,-17.829 25.021,0 0,63.159 L 0,0 Z"
           style="fill:#ffffff;fill-opacity:1;fill-rule:evenodd;stroke:none"
           id="path4633"
           inkscape:connector-curvature="0" /></g><g
         id="g4635"
         transform="translate(683.58224,711.7613)"
         style="fill:#ffffff"><path
           d="m 0,0 c -3.863,-6.417 -7.873,-12.46 -15.118,-16 -2.708,-1.323 -5.574,-2.24 -8.603,-2.713 -1.476,-0.215 -2.908,-0.495 -4.398,-0.607 -1.24,-0.082 -2.464,0.028 -3.711,0.028 -9.169,0.011 -18.316,0 -27.484,0.011 -3.301,0 -5.739,-1.287 -7.374,-3.904 -5.848,-9.221 -9.746,-19.097 -11.849,-29.531 -0.459,-2.192 -0.583,-4.435 -1.002,-6.647 -0.299,-1.756 1.248,-3.521 2.816,-4.115 1.352,-0.491 2.823,-0.71 4.258,-0.929 1.456,-0.227 2.921,-0.344 4.393,-0.447 1.28,-0.101 2.566,-0.117 3.875,-0.199 0.74,-0.046 1.47,-0.226 2.225,-0.234 3.963,-0.056 7.956,-0.132 11.923,-0.07 2.11,0.037 4.244,0.285 6.356,0.475 2.997,0.296 6.001,0.646 8.998,0.98 0.297,0.037 0.583,0.136 1.068,0.239 -0.426,-1.39 -0.846,-2.631 -1.217,-3.862 -1.629,-5.09 -3.244,-10.163 -4.81,-15.265 -0.202,-0.681 -0.595,-0.918 -1.369,-0.994 -2.747,-0.248 -5.526,-0.605 -8.316,-0.89 -1.78,-0.195 -3.563,-0.278 -5.332,-0.456 -1.558,-0.141 -3.161,-0.37 -4.737,-0.453 -1.067,-0.075 -2.096,0.041 -3.17,0.041 -3.281,-0.025 -6.604,-0.083 -9.932,-0.075 -2.216,0.004 -4.525,0.117 -6.777,0.156 -1.435,0.039 -2.838,-0.039 -4.295,0.039 -1.473,0.088 -2.961,0.315 -4.46,0.477 -2.234,0.271 -4.464,0.472 -6.688,0.837 -2.959,0.539 -5.464,1.924 -7.596,3.859 -3.51,3.245 -5.239,7.277 -6.051,11.615 -0.418,2.065 -0.73,4.158 -0.692,6.226 0.059,3.135 0.631,6.235 1.393,9.302 1.414,6.026 2.809,12.071 4.851,17.958 2.438,6.973 5.37,13.746 9.631,19.994 3.499,5.123 7.898,9.45 13.789,12.434 3.612,1.841 7.501,2.719 11.572,2.719 C -45.52,0 -23.265,0 -1.021,0 L 0,0 Z"
           style="fill:#ffffff;fill-opacity:1;fill-rule:evenodd;stroke:none"
           id="path4637"
           inkscape:connector-curvature="0" /></g><g
         id="g4639"
         transform="translate(311.19214,682.4361)"
         style="fill:#ffffff"><path
           d="m 0,0 c 2.231,3.482 4.472,6.992 6.72,10.473 2.291,3.434 4.922,6.66 8.185,9.413 4.185,3.567 9.106,6.027 14.663,7.551 2.902,0.813 5.874,1.261 8.931,1.542 1.261,0.11 2.537,0.346 3.824,0.431 0.942,0.048 1.931,-0.085 2.871,-0.085 4.135,-10e-4 8.268,-0.046 12.377,-0.017 7.015,0.017 14.04,0.15 21.115,0.12 10.987,-0.051 21.993,-0.181 32.994,-0.306 0.144,0 0.29,-0.011 0.471,-0.033 0,-0.11 0.027,-0.237 -0.036,-0.326 -2.291,-3.707 -4.548,-7.436 -7.835,-10.563 -4.322,-4.103 -9.5,-6.662 -15.691,-7.593 -1.447,-0.21 -2.894,-0.505 -4.344,-0.602 -1.364,-0.098 -2.698,0.028 -4.035,0.028 -4.337,0.011 -8.672,0 -13.013,0.018 -0.77,0.007 -1.087,-0.191 -1.303,-0.866 -4.701,-13.789 -9.418,-27.611 -14.091,-41.417 -2.407,-7.086 -4.833,-14.185 -7.239,-21.314 -0.242,-0.698 -0.583,-0.95 -1.418,-0.936 -8.297,0.041 -16.6,0.023 -24.899,0.023 l -1.234,0 c 0.301,0.867 0.535,1.636 0.776,2.409 5.007,14.765 10.004,29.524 15.008,44.293 1.858,5.593 3.78,11.158 5.702,16.74 0.328,0.959 0.244,1.05 -0.921,1.061 -2.729,0 -5.46,0.035 -8.179,-0.011 C 27.793,10.005 26.248,9.796 24.645,9.7 23.228,9.594 21.788,9.594 20.399,9.416 18.86,9.233 17.375,8.925 15.904,8.603 14.622,8.32 13.388,7.936 12.16,7.583 8.808,6.612 6.148,4.739 3.86,2.411 3.128,1.673 2.374,0.932 1.654,0.191 1.223,-0.302 0.747,-0.483 0,0"
           style="fill:#ffffff;fill-opacity:1;fill-rule:evenodd;stroke:none"
           id="path4641"
           inkscape:connector-curvature="0" /></g><g
         id="g4643"
         transform="translate(569.96114,649.0786)"
         style="fill:#ffffff"><path
           d="m 0,0 c -0.525,-1.588 -0.959,-3.049 -1.426,-4.514 -1.537,-4.825 -3.139,-9.644 -4.56,-14.503 -0.363,-1.217 -1.338,-1.09 -2.139,-1.201 -3.195,-0.461 -6.428,-0.866 -9.653,-1.183 -3.474,-0.34 -7.001,-0.546 -10.507,-0.786 -1.494,-0.083 -3.022,-0.094 -4.5,-0.166 -1.137,-0.062 -2.225,-0.262 -3.341,-0.236 -3.179,0.096 -6.397,0.217 -9.542,0.44 -4.066,0.29 -8.176,0.633 -12.253,1.065 -4.702,0.529 -9.104,1.767 -12.481,4.997 -2.447,2.281 -3.738,5.066 -4.342,8.152 -0.334,1.51 -0.424,3.053 -0.424,4.62 -0.035,3.65 0.717,7.18 1.758,10.644 2.382,7.894 4.782,15.752 7.357,23.579 3.396,10.314 7.032,20.578 10.528,30.867 0.183,0.517 0.388,0.727 1.027,0.727 8.471,-0.033 16.927,-0.033 25.372,-0.033 0.207,0 0.458,-0.023 0.712,-0.029 -0.871,-2.624 -1.73,-5.187 -2.587,-7.755 -4.307,-12.902 -8.691,-25.762 -12.849,-38.686 -1.173,-3.573 -1.751,-7.314 -2.629,-10.969 -0.715,-3.074 2.67,-6.23 5.019,-6.64 1.831,-0.335 3.769,-0.414 5.638,-0.598 1.179,-0.101 2.363,-0.278 3.508,-0.331 2.568,-0.065 5.106,-0.139 7.684,-0.139 1.818,0.003 3.609,0.104 5.468,0.235 1.713,0.146 3.457,0.375 5.179,0.573 2.909,0.316 5.805,0.612 8.669,0.971 C -3.602,-0.675 -1.91,-0.325 0,0"
           style="fill:#ffffff;fill-opacity:1;fill-rule:evenodd;stroke:none"
           id="path4645"
           inkscape:connector-curvature="0" /></g></g></g></svg>