<?xml version="1.0" encoding="UTF-8" standalone="no"?>
<svg
   xmlns:dc="http://purl.org/dc/elements/1.1/"
   xmlns:cc="http://creativecommons.org/ns#"
   xmlns:rdf="http://www.w3.org/1999/02/22-rdf-syntax-ns#"
   xmlns:svg="http://www.w3.org/2000/svg"
   xmlns="http://www.w3.org/2000/svg"
   viewBox="0 0 1135.8173 369.98596"
   height="369.98596"
   width="1135.8173"
   xml:space="preserve"
   version="1.1"
   id="svg-vtelca"><metadata
     id="metadata8"><rdf:RDF><cc:Work
         rdf:about=""><dc:format>image/svg+xml</dc:format><dc:type
           rdf:resource="http://purl.org/dc/dcmitype/StillImage" /><dc:title></dc:title></cc:Work></rdf:RDF></metadata><defs
     id="defs6"><clipPath
       id="clipPath16"
       clipPathUnits="userSpaceOnUse"><path
         id="path18"
         d="M 0,800 1280,800 1280,0 0,0 0,800 Z" /></clipPath></defs><g
     transform="matrix(1.25,0,0,-1.25,-266.46975,657.68382)"
     id="g10"><g
       id="g12"><g
         clip-path="url(#clipPath16)"
         id="g14"><g
           transform="translate(213.1758,381.1992)"
           id="g20"><path
             id="path22"
             class="fill-vtelca" style="fill-opacity:1;fill-rule:evenodd;stroke:none"
             d="m 0,0 c 15.557,-0.018 31.113,-0.039 46.67,-0.057 3.725,-0.004 7.45,0 11.592,-0.4 -0.323,-0.371 -0.6,-0.809 -0.988,-1.09 -0.21,-0.152 -0.613,-0.046 -0.929,-0.046 C 37.941,-1.594 19.537,-1.594 1.134,-1.59 0.755,-1.59 0.377,-1.544 0,-1.52 L 0,0 Z" /></g><g
           transform="translate(213.1758,383.8584)"
           id="g24"><path
             id="path26"
             class="fill-vtelca" style="fill-opacity:1;fill-rule:evenodd;stroke:none"
             d="m 0,0 c 14.495,-0.019 28.991,-0.038 43.486,-0.056 3.481,-0.005 6.964,0.026 10.444,-0.029 0.581,-0.01 1.156,-0.385 1.734,-0.593 C 55.087,-0.954 54.511,-1.47 53.934,-1.472 37.665,-1.515 21.395,-1.506 5.126,-1.507 3.417,-1.507 1.708,-1.515 0,-1.519 L 0,0 Z" /></g><g
           transform="translate(440.4702,357.7559)"
           id="g28"><path
             id="path30"
             class="fill-vtelca" style="fill-opacity:1;fill-rule:evenodd;stroke:none"
             d="m 0,0 c 0.296,0 0.6,-0.005 0.903,0.002 12.014,0.274 24.031,0.523 36.044,0.834 16.691,0.434 33.38,0.932 50.07,1.367 12.71,0.332 25.421,0.586 38.131,0.918 16.627,0.434 33.254,0.93 49.882,1.361 12.711,0.33 25.424,0.578 38.134,0.909 16.753,0.436 33.508,0.918 50.263,1.376 9.294,0.254 18.587,0.534 27.883,0.741 5.115,0.115 10.306,0.681 15.337,0.045 17.183,-2.174 34.312,-4.777 51.458,-7.244 26.532,-3.821 53.062,-7.659 79.589,-11.523 1.166,-0.171 1.654,0.133 1.681,1.455 -0.613,0.113 -1.211,0.244 -1.817,0.331 -13.701,1.985 -27.402,3.969 -41.107,5.942 -13.642,1.962 -27.288,3.9 -40.929,5.866 -12.703,1.831 -25.395,3.752 -38.107,5.503 -5.185,0.715 -10.408,1.43 -15.625,1.535 -6.82,0.141 -13.65,-0.35 -20.478,-0.52 C 268.603,8.578 255.891,8.319 243.181,7.989 226.426,7.555 209.674,7.055 192.919,6.617 180.273,6.287 167.624,6.035 154.977,5.705 138.349,5.269 121.722,4.771 105.093,4.339 92.383,4.009 79.671,3.762 66.96,3.432 50.08,2.995 33.2,2.514 16.319,2.055 11.261,1.918 6.203,1.787 1.145,1.678 0.037,1.653 -0.546,1.339 0,0 M -0.009,4.254 C -0.164,4.042 -0.318,3.83 -0.473,3.619 0.023,3.276 0.494,2.7 1.021,2.641 2.142,2.514 3.292,2.645 4.431,2.69 c 18.324,0.734 36.65,1.479 54.976,2.201 14.282,0.563 28.564,1.076 42.846,1.644 20.6,0.821 41.198,1.686 61.796,2.51 11.375,0.455 22.753,0.846 34.129,1.301 20.472,0.818 40.945,1.675 61.416,2.497 11.693,0.47 23.383,0.954 35.075,1.337 4.603,0.15 9.287,0.573 13.804,-0.056 9.631,-1.341 19.18,-3.29 28.762,-4.989 18.856,-3.346 37.714,-6.692 56.57,-10.036 14.874,-2.64 29.748,-5.28 44.623,-7.913 1.441,-0.254 1.444,-0.231 1.702,1.414 -2.901,0.513 -5.809,1.029 -8.718,1.546 -19.602,3.489 -39.203,6.979 -58.804,10.467 -18.979,3.377 -37.956,6.77 -56.941,10.11 -3.789,0.666 -7.633,1.699 -11.42,1.58 C 283.454,15.646 262.67,14.666 241.881,13.83 227.411,13.248 212.936,12.744 198.465,12.166 177.927,11.347 157.393,10.475 136.856,9.655 122.26,9.072 107.66,8.559 93.063,7.977 72.588,7.161 52.116,6.301 31.643,5.477 21.093,5.05 10.542,4.659 -0.009,4.254 M -0.102,6.803 C -0.519,5.102 0.296,5.15 1.424,5.213 c 12.947,0.711 25.895,1.365 38.844,2.05 16.547,0.876 33.094,1.765 49.641,2.649 16.611,0.887 33.22,1.776 49.831,2.664 16.61,0.887 33.22,1.776 49.83,2.662 16.547,0.884 33.094,1.763 49.64,2.653 20.652,1.109 41.301,2.255 61.957,3.308 2.69,0.137 5.449,0.094 8.096,-0.346 4.858,-0.808 9.656,-1.972 14.478,-2.992 31.597,-6.679 63.196,-13.361 94.794,-20.037 6.924,-1.463 13.858,-2.889 20.777,-4.378 0.984,-0.213 1.744,-0.202 1.566,0.993 -0.046,0.321 -0.976,0.618 -1.542,0.735 -41.856,8.868 -83.714,17.722 -125.58,26.548 -2.956,0.622 -5.977,1.481 -8.944,1.397 -8.974,-0.252 -17.935,-0.928 -26.901,-1.414 -16.61,-0.898 -33.221,-1.78 -49.83,-2.668 -16.547,-0.883 -33.094,-1.762 -49.641,-2.65 -20.652,-1.111 -41.302,-2.236 -61.954,-3.34 C 100.95,12.216 85.412,11.41 69.874,10.588 51.242,9.604 32.61,8.616 13.979,7.62 9.31,7.369 4.644,7.08 -0.102,6.803 m 0.103,0.952 c 0.323,0 0.637,-0.019 0.949,0.003 11.863,0.807 23.724,1.628 35.588,2.429 22.654,1.528 45.31,3.043 67.964,4.565 22.593,1.518 45.185,3.039 67.777,4.555 22.655,1.522 45.311,3.039 67.967,4.561 20.699,1.39 41.396,2.808 62.097,4.144 2.307,0.15 4.736,0.224 6.951,-0.314 35.987,-8.728 71.948,-17.562 107.916,-26.372 7.966,-1.951 15.932,-3.9 23.873,-5.845 0.92,1.22 0.588,1.658 -0.722,1.969 -6.516,1.544 -13.01,3.185 -19.515,4.779 -37.194,9.116 -74.39,18.234 -111.593,27.324 -1.269,0.309 -2.623,0.5 -3.92,0.428 -5.05,-0.278 -10.093,-0.698 -15.14,-1.04 -12.117,-0.818 -24.235,-1.617 -36.352,-2.433 -14.198,-0.955 -28.396,-1.924 -42.594,-2.877 -12.18,-0.82 -24.361,-1.618 -36.54,-2.441 C 160.634,20.24 146.563,19.265 132.492,18.319 118.356,17.369 104.218,16.453 90.083,15.5 74.116,14.426 58.154,13.318 42.188,12.246 28.494,11.326 14.798,10.423 1.101,9.549 -0.25,9.462 -0.583,8.975 0.001,7.755 m 0.04,2.567 c 0.548,0.033 1.112,0.057 1.674,0.103 5.483,0.448 10.966,0.912 16.451,1.353 11.788,0.951 23.578,1.884 35.366,2.835 13.364,1.078 26.728,2.173 40.092,3.254 10.022,0.811 20.046,1.61 30.07,2.42 13.491,1.09 26.98,2.187 40.471,3.278 11.663,0.943 23.325,1.882 34.988,2.826 11.85,0.96 23.702,1.92 35.553,2.882 11.725,0.951 23.45,1.901 35.174,2.854 11.537,0.938 23.071,1.902 34.61,2.793 1.486,0.115 3.074,0.122 4.491,-0.272 39.028,-10.816 78.04,-21.695 117.057,-32.56 5.22,-1.453 10.443,-2.899 15.672,-4.35 0.873,1.556 -0.062,1.807 -1.144,2.108 -11.932,3.312 -23.854,6.657 -35.782,9.982 -31.893,8.893 -63.784,17.783 -95.681,26.658 -0.841,0.235 -1.745,0.456 -2.598,0.39 -6.557,-0.501 -13.108,-1.087 -19.663,-1.626 -11.849,-0.971 -23.7,-1.93 -35.551,-2.891 -11.725,-0.95 -23.45,-1.894 -35.175,-2.843 -11.725,-0.949 -23.449,-1.903 -35.174,-2.849 -10.087,-0.813 -20.175,-1.615 -30.26,-2.434 -13.302,-1.08 -26.6,-2.179 -39.901,-3.256 C 98.993,20.023 87.202,19.098 75.414,18.146 62.049,17.067 48.687,15.968 35.322,14.891 23.912,13.971 12.5,13.061 1.086,12.168 -0.185,12.068 -0.657,11.624 0.041,10.322 m 452.12,-26.139 c -12.382,1.477 -24.619,2.949 -36.859,4.393 -11.24,1.327 -22.485,2.614 -33.724,3.942 -11.24,1.326 -22.473,2.693 -33.711,4.021 -11.24,1.329 -22.482,2.63 -33.722,3.949 -3.015,0.355 -6.077,0.5 -9.028,1.148 C 297.917,3.214 290.7,1.986 283.5,1.992 272.112,2.002 260.725,1.65 249.337,1.445 228.272,1.066 207.207,0.686 186.14,0.302 172.729,0.056 159.319,-0.206 145.908,-0.452 125.032,-0.836 104.157,-1.213 83.281,-1.598 69.807,-1.845 56.333,-2.092 42.859,-2.355 33.371,-2.543 23.884,-2.756 14.396,-2.961 14.028,-2.969 13.661,-3.003 13.175,-3.031 l 0,-25.952 c 24.287,-3.401 48.673,-6.817 73.059,-10.232 0,-0.197 0,-0.393 -10e-4,-0.592 -2.801,0 -5.608,0.1 -8.403,-0.025 -3.726,-0.165 -7.444,-0.493 -11.163,-0.78 -0.625,-0.049 -1.284,-0.15 -1.847,-0.404 -0.649,-0.292 -1.208,-0.78 -1.806,-1.184 0.58,-0.508 1.081,-1.244 1.756,-1.479 1.483,-0.51 3.038,-0.968 4.593,-1.099 11.278,-0.95 22.562,-1.82 33.845,-2.699 14.689,-1.144 29.404,-2.019 44.056,-3.515 7.095,-0.725 13.953,-3.028 20.475,-6.047 4.164,-1.93 6.873,-4.969 7.396,-9.802 0.1,-0.91 1.476,-2.1 2.492,-2.417 3.311,-1.023 6.687,-2.058 10.111,-2.447 14.763,-1.677 29.525,-3.519 44.34,-4.556 19.742,-1.384 39.524,-2.456 59.307,-2.965 21.315,-0.547 42.655,-0.589 63.975,-0.267 11.675,0.176 23.382,1.154 34.982,2.535 8.063,0.96 15.974,3.2 23.946,4.908 7.352,1.575 14.709,3.138 22.029,4.853 1.873,0.438 3.743,1.224 5.383,2.227 2.179,1.332 2.074,2.647 -0.281,3.592 -2.864,1.149 -5.845,2.012 -8.798,2.924 -3.499,1.082 -7.035,2.047 -10.528,3.152 -0.908,0.288 -1.711,0.908 -2.563,1.375 -0.002,0.202 -0.002,0.404 -0.005,0.606 0.988,0.444 1.935,1.092 2.971,1.299 5.945,1.177 11.874,2.535 17.877,3.301 14.882,1.904 29.839,2.833 44.859,2.788 8.476,-0.025 16.953,0.167 25.426,0.403 2.124,0.058 4.236,0.644 6.349,1.012 0.368,0.064 0.815,0.146 1.055,0.388 0.891,0.893 1.709,1.857 2.555,2.794 -1.025,0.481 -2.023,1.289 -3.08,1.381 -3.463,0.299 -6.946,0.389 -10.422,0.467 -7.337,0.167 -14.676,0.27 -22.014,0.418 -0.678,0.013 -1.353,0.156 -2.199,0.259 2.45,1.79 13.305,3.019 24.65,3.137 8.267,0.085 16.531,0.444 24.797,0.679 0.036,-0.287 0.071,-0.573 0.109,-0.86 -3.246,-0.597 -6.489,-1.195 -9.733,-1.791 -10e-4,-0.225 -0.003,-0.45 -0.005,-0.675 0.801,-0.141 1.598,-0.372 2.404,-0.405 10.111,-0.4 20.229,-0.694 30.336,-1.192 3.715,-0.185 7.415,-0.774 11.101,-1.326 0.714,-0.108 1.325,-0.897 1.983,-1.371 -0.594,-0.589 -1.109,-1.554 -1.796,-1.7 -3.575,-0.767 -7.173,-1.502 -10.8,-1.915 -8.226,-0.938 -16.53,-1.385 -24.488,-3.904 -2.087,-0.661 -4.179,-1.533 -6.019,-2.703 -2.927,-1.86 -2.756,-4.882 0.502,-6.043 4.382,-1.559 8.918,-2.856 13.493,-3.678 19.259,-3.456 38.719,-5.208 58.223,-6.613 20.822,-1.5 41.617,-3.401 62.035,-7.993 5.272,-1.187 10.405,-3.066 15.508,-4.89 1.721,-0.613 3.305,-1.87 4.681,-3.129 1.854,-1.692 2.01,-3.796 0.194,-5.516 -1.994,-1.885 -4.245,-3.635 -6.667,-4.904 -9.432,-4.938 -19.635,-7.669 -29.98,-9.876 -17.519,-3.736 -35.238,-6.241 -53.047,-8.046 -18.625,-1.888 -37.266,-3.654 -55.925,-5.17 -14.623,-1.187 -29.279,-2.024 -43.931,-2.815 -20.212,-1.091 -40.43,-2.063 -60.652,-2.948 -13.206,-0.579 -26.422,-0.957 -39.637,-1.343 -14.797,-0.432 -29.595,-0.811 -44.395,-1.141 -13.599,-0.305 -27.202,-0.708 -40.801,-0.65 -4.429,0.02 -8.861,1.319 -13.277,2.106 -20.91,3.729 -41.815,7.485 -62.722,11.23 -20.038,3.591 -40.075,7.179 -60.111,10.773 -20.161,3.615 -40.318,7.237 -60.477,10.857 -21.652,3.889 -43.302,7.788 -64.956,11.667 -25.761,4.613 -51.526,9.2 -77.286,13.818 -24.329,4.361 -48.653,8.751 -72.983,13.115 -22.959,4.117 -45.924,8.213 -68.887,12.324 -3.392,0.607 -6.782,1.238 -10.573,1.932 5.941,4.108 11.54,7.979 17.137,11.849 -0.026,0.146 -0.051,0.291 -0.076,0.436 l -37.295,0 c -0.017,0.189 -0.033,0.378 -0.048,0.565 1.652,0.289 3.303,0.817 4.956,0.827 11.776,0.072 23.553,0.04 35.329,0.032 0.49,0 0.98,-0.079 1.691,-0.139 l 0,-7.913 6.598,0 0,7.932 c 0.873,0.051 1.542,0.122 2.211,0.122 30.453,0.006 60.907,0.102 91.358,-0.122 3.657,-0.027 7.314,-1.752 10.947,-2.777 1.826,-0.517 3.304,-1.87 5.501,-1.56 3.211,0.455 6.495,0.361 9.727,0.704 2.136,0.225 3.158,-0.572 3.368,-2.631 0.036,-0.361 0.174,-0.712 0.277,-1.11 l 4.11,0 0,3.397 c 3.691,-0.388 7.241,-0.76 10.98,-1.152 l 0,45.953 4.394,0 0,-45.324 c -0.696,-0.076 -1.408,-0.154 -2.328,-0.255 0.893,-0.065 1.58,-0.115 2.454,-0.178 l 0,-6.364 6.564,0 0,52.097 7.839,0 c 0.14,-0.478 0.293,-1.01 0.495,-1.707 3.312,0.299 6.633,0.587 9.951,0.901 14.485,1.361 28.969,2.723 43.453,4.1 15.301,1.453 30.601,2.935 45.903,4.384 12.783,1.21 25.572,2.378 38.356,3.588 14.043,1.33 28.082,2.697 42.125,4.025 12.72,1.203 25.445,2.367 38.167,3.568 14.043,1.327 28.083,2.684 42.127,4.013 12.656,1.198 25.316,2.374 37.974,3.561 1.133,0.107 2.283,0.144 3.395,0.371 4.767,0.968 9.194,-0.241 13.715,-1.664 41.768,-13.14 83.571,-26.179 125.364,-39.243 0.538,-0.166 1.091,-0.287 1.665,-0.438 0.93,1.759 -0.446,1.901 -1.475,2.223 -20.326,6.353 -40.654,12.695 -60.98,19.045 -23.16,7.234 -46.313,14.492 -69.49,21.668 -1.502,0.465 -3.212,0.554 -4.792,0.42 -9.895,-0.848 -19.78,-1.803 -29.667,-2.731 -11.273,-1.06 -22.545,-2.129 -33.818,-3.195 -11.461,-1.084 -22.922,-2.169 -34.382,-3.259 -12.784,-1.214 -25.566,-2.44 -38.349,-3.65 -11.273,-1.066 -22.547,-2.111 -33.82,-3.175 C 123.857,26.334 112.334,25.227 100.81,24.137 89.538,23.072 78.264,22.026 66.991,20.961 54.208,19.752 41.424,18.529 28.642,17.316 20.204,16.514 11.765,15.714 3.326,14.922 2.85,14.878 2.365,14.916 1.885,14.916 c -0.035,0.16 -0.071,0.32 -0.105,0.48 0.645,0.173 1.281,0.432 1.936,0.503 18.675,2.038 37.351,4.067 56.029,6.078 20.498,2.206 41.004,4.375 61.502,6.591 21.631,2.34 43.258,4.731 64.891,7.073 18.112,1.961 36.231,3.871 54.344,5.828 18.111,1.959 36.219,3.949 54.328,5.924 3.648,0.398 7.286,0.912 10.944,1.135 1.648,0.102 3.428,-0.098 4.985,-0.635 43.245,-14.914 86.469,-29.891 129.697,-44.854 0.642,-0.222 1.295,-0.407 1.945,-0.611 0.758,1.502 -0.155,1.832 -1.203,2.195 -14.337,4.946 -28.667,9.912 -42.996,14.876 -29.374,10.173 -58.743,20.359 -88.133,30.489 -1.125,0.387 -2.455,0.434 -3.656,0.313 -8.622,-0.866 -17.235,-1.814 -25.85,-2.74 C 269.413,46.363 258.282,45.164 247.152,43.96 235.958,42.751 224.767,41.537 213.574,40.325 201.31,38.998 189.046,37.672 176.783,36.344 164.519,35.017 152.255,33.691 139.991,32.361 127.604,31.018 115.217,29.66 102.829,28.322 90.565,26.997 78.3,25.695 66.037,24.373 54.907,23.17 43.78,21.952 32.651,20.741 22.905,19.68 13.159,18.617 3.412,17.572 2.904,17.517 2.38,17.608 1.793,18.084 c 0.56,0.146 1.111,0.359 1.681,0.429 11.865,1.446 23.734,2.87 35.6,4.311 12.934,1.572 25.866,3.159 38.8,4.735 12.054,1.466 24.108,2.92 36.162,4.39 11.928,1.453 23.855,2.923 35.784,4.377 12.933,1.576 25.867,3.141 38.801,4.713 14.126,1.719 28.252,3.444 42.377,5.162 13.058,1.587 26.12,3.16 39.177,4.753 11.928,1.454 23.851,2.964 35.788,4.339 1.566,0.182 3.333,0.053 4.792,-0.5 43.307,-16.403 86.585,-32.879 129.87,-49.34 0.629,-0.24 1.278,-0.426 1.908,-0.633 0.779,1.723 -0.434,1.952 -1.43,2.332 -16.772,6.381 -33.531,12.795 -50.318,19.134 -15.795,5.962 -31.621,11.845 -47.432,17.767 -0.642,0.24 -1.267,0.525 -1.853,0.906 34.21,-11.065 68.098,-22.997 100.927,-37.994 0.653,1.398 0.431,2.01 -0.706,2.477 -11.688,4.81 -23.357,9.668 -35.045,14.482 -1.377,0.566 -3.339,0.467 -2.694,3.055 12.914,-5.803 25.759,-11.575 38.622,-17.354 0.51,1.275 0.147,1.873 -0.948,2.361 -11.72,5.219 -23.413,10.496 -35.126,15.733 -1.407,0.627 -3.504,0.558 -2.699,3.146 12.894,-6.236 25.765,-12.463 38.728,-18.733 0.396,1.308 0.024,1.942 -1.093,2.479 -11.626,5.575 -23.224,11.203 -34.835,16.811 -0.451,0.217 -0.929,0.401 -1.416,0.517 -1.485,0.352 -1.9,1.26 -1.507,2.823 12.899,-6.68 25.7,-13.307 38.498,-19.934 0.169,0.149 0.338,0.299 0.507,0.448 -0.527,0.697 -0.904,1.679 -1.604,2.045 -11.594,6.064 -23.229,12.054 -34.859,18.049 -0.442,0.228 -0.933,0.362 -1.405,0.527 -1.372,0.481 -1.828,1.38 -1.345,2.843 12.781,-7.056 25.464,-14.057 38.15,-21.06 0.173,0.173 0.345,0.345 0.517,0.517 -0.598,0.733 -1.051,1.729 -1.821,2.158 -11.32,6.313 -22.682,12.553 -34.04,18.799 -0.493,0.273 -1.024,0.496 -1.562,0.668 -1.432,0.459 -1.827,1.39 -1.368,2.885 12.548,-7.359 25.028,-14.678 37.506,-21.996 0.174,0.177 0.347,0.354 0.52,0.532 -0.657,0.786 -1.162,1.827 -1.994,2.319 -11.1,6.578 -22.243,13.078 -33.382,19.588 -0.43,0.251 -0.904,0.429 -1.37,0.61 -1.284,0.498 -1.958,1.334 -1.561,3.037 12.325,-7.651 24.553,-15.24 36.779,-22.83 0.159,0.146 0.318,0.293 0.476,0.439 -0.737,0.899 -1.304,2.065 -2.236,2.652 -10.709,6.733 -21.473,13.381 -32.227,20.042 -0.479,0.296 -1.001,0.543 -1.528,0.742 -1.376,0.521 -1.742,1.486 -1.376,2.988 11.865,-7.777 23.623,-15.484 35.382,-23.192 0.171,0.147 0.343,0.294 0.515,0.442 -0.715,0.908 -1.256,2.078 -2.171,2.685 -10.385,6.887 -20.829,13.688 -31.257,20.512 -1.153,0.754 -2.915,0.901 -2.849,2.864 0.009,0.238 0.061,0.474 0.112,0.859 11.415,-7.881 22.718,-15.682 34.019,-23.482 0.172,0.162 0.344,0.323 0.516,0.484 -0.875,1.029 -1.58,2.301 -2.651,3.051 -9.328,6.532 -18.72,12.974 -28.1,19.431 -0.777,0.534 -1.586,1.037 -2.432,1.448 -1.325,0.642 -1.91,1.559 -1.401,3.118 10.711,-7.767 21.37,-15.495 32.029,-23.223 0.16,0.142 0.322,0.284 0.482,0.429 -0.903,1.115 -1.621,2.479 -2.738,3.303 -8.914,6.568 -17.904,13.036 -26.877,19.524 -0.507,0.366 -1.066,0.671 -1.627,0.952 -1.28,0.638 -1.939,1.566 -1.535,3.255 9.995,-7.595 19.896,-15.12 29.799,-22.644 0.168,0.153 0.335,0.307 0.501,0.461 -1.042,1.247 -1.902,2.729 -3.157,3.7 -8.058,6.233 -16.204,12.357 -24.325,18.507 -0.449,0.339 -0.948,0.624 -1.45,0.88 -1.268,0.645 -1.956,1.56 -1.495,3.271 9.045,-7.191 17.998,-14.311 26.952,-21.429 0.145,0.109 0.29,0.216 0.435,0.325 -0.918,1.252 -1.622,2.766 -2.787,3.715 -7.118,5.793 -14.337,11.462 -21.534,17.156 -0.638,0.506 -1.368,0.897 -2.047,1.353 -1.071,0.718 -1.699,1.615 -1.215,3.155 7.876,-6.544 15.617,-12.975 23.359,-19.408 0.147,0.123 0.297,0.247 0.443,0.371 -1.118,1.443 -2.031,3.125 -3.39,4.287 -5.961,5.103 -12.068,10.036 -18.078,15.081 -0.999,0.839 -1.81,1.911 -2.651,2.924 -0.127,0.153 0.063,0.568 0.132,1.048 5.391,-4.675 10.641,-9.231 15.892,-13.787 0.143,0.148 0.287,0.296 0.429,0.443 -3.189,3.258 -6.18,6.745 -9.606,9.733 -10.39,9.061 -21.151,17.703 -31.382,26.937 -9.458,8.537 -19.312,16.541 -29.478,24.192 -0.494,0.372 -1.003,0.722 -1.705,0.837 8.295,-7.094 16.59,-14.188 24.887,-21.282 -0.091,-0.136 -0.179,-0.271 -0.27,-0.408 -0.451,0.305 -0.924,0.58 -1.351,0.916 -15.771,12.508 -31.526,25.036 -47.321,37.515 -2.143,1.693 -4.734,2.757 -6.743,4.693 -0.372,0.357 -1.42,0.241 -2.071,0.051 -14.31,-4.184 -28.611,-8.412 -42.913,-12.63 C 183.833,107.766 97.407,82.278 10.975,56.807 10.168,56.568 9.291,56.565 8.446,56.453 c -0.036,0.154 -0.07,0.309 -0.105,0.464 100.882,31.056 201.763,62.113 302.747,93.203 -0.756,1.475 -1.798,1.266 -3.019,0.889 -27.101,-8.364 -54.207,-16.705 -81.315,-25.048 C 156.222,104.252 85.69,82.545 15.157,60.836 11.471,59.702 7.793,58.542 4.098,57.437 1.878,56.771 0.321,56.685 0.642,59.833 c 0.139,1.377 0.085,2.792 -0.051,4.173 -0.137,1.387 0.448,1.981 1.697,2.461 38.325,14.77 76.506,29.929 114.991,44.271 33.152,12.356 66.585,23.969 100.013,35.566 20.895,7.249 42.028,13.838 63.635,18.674 7.008,1.569 14.196,2.362 21.327,3.306 2.188,0.288 4.466,-0.081 6.699,-0.215 0.316,-0.019 0.63,-0.394 0.91,-0.642 36.728,-32.577 73.561,-65.037 110.114,-97.81 11.061,-9.915 21.349,-20.69 31.978,-31.086 2.168,-2.121 4.253,-4.327 6.417,-6.455 1.447,-1.426 1.468,-1.389 0.277,-3.185 -0.111,-0.169 -0.111,-0.634 -0.01,-0.693 1.665,-0.95 0.83,-2.524 0.897,-3.8 0.675,-12.944 -1.355,-25.458 -6.142,-37.513 -0.257,-0.646 -0.518,-1.29 -0.793,-1.927 -0.1,-0.23 -0.247,-0.437 -0.44,-0.775" /></g><g
           transform="translate(565.2329,322.5205)"
           id="g32"><path
             id="path34"
             class="fill-vtelca" style="fill-opacity:1;fill-rule:evenodd;stroke:none"
             d="m 0,0 c 0.105,0.448 0.208,0.686 0.21,0.923 0.013,7.527 -0.007,15.054 0.04,22.579 0.008,1.451 -0.838,1.418 -1.85,1.417 -10.119,-0.012 -20.24,-0.034 -30.358,0.024 -1.499,0.009 -1.957,-0.453 -1.94,-1.933 0.065,-6.325 0.063,-12.651 0.001,-18.974 -0.015,-1.474 0.468,-1.913 1.945,-1.995 C -25.01,1.653 -18.077,1.12 -11.139,0.661 -7.439,0.416 -3.734,0.22 0,0 m 7.476,26.962 0,-30.578 c 15.899,-0.998 31.649,-1.987 47.482,-2.982 l 0,34.952 C 39.052,27.888 23.285,27.424 7.476,26.962 m 57.346,1.476 0,-35.152 c 20.614,-1.1 41.095,-2.192 61.687,-3.29 0.087,1.062 0.181,1.869 0.214,2.678 0.469,11.052 0.936,22.103 1.39,33.154 0.107,2.603 0.086,2.609 -2.491,2.609 -19.482,0.003 -38.964,10e-4 -58.447,10e-4 l -2.353,0 z m 106.102,3.229 0,-54.953 C 77.265,-14.274 -16.265,-5.274 -109.939,3.74 l 0,23.902 c 2.087,0 4.211,-0.024 6.334,0.004 9.235,0.119 18.469,0.25 27.704,0.378 18.219,0.254 36.439,0.505 54.657,0.764 14.864,0.211 29.729,0.435 44.594,0.65 19.734,0.288 39.467,0.571 59.201,0.86 14.674,0.217 29.35,0.431 44.024,0.667 13.978,0.222 27.955,0.468 41.933,0.7 0.751,0.014 1.502,0.002 2.416,0.002" /></g><g
           transform="translate(739.3311,299.2197)"
           id="g36"><path
             id="path38"
             class="fill-vtelca" style="fill-opacity:1;fill-rule:evenodd;stroke:none"
             d="M 0,0 C 0.733,18.351 1.465,36.584 2.199,54.957 50.79,49.292 99.134,43.656 147.584,38.008 l 0,-15.719 C 98.444,14.868 49.323,7.448 0,0" /></g><g
           transform="translate(451.4214,409.0176)"
           id="g40"><path
             id="path42"
             class="fill-vtelca" style="fill-opacity:1;fill-rule:evenodd;stroke:none"
             d="m 0,0 c -3.763,-1.07 -7.525,-2.143 -11.275,-3.211 -0.163,-1.49 0.465,-1.685 1.667,-1.336 4.608,1.344 9.226,2.662 13.857,3.929 1.022,0.279 2.113,0.307 3.172,0.45 0.027,-0.186 0.055,-0.369 0.082,-0.555 -6.243,-1.687 -12.487,-3.375 -18.711,-5.056 0.166,-1.707 0.168,-1.719 1.742,-1.297 7.019,1.879 14.03,3.788 21.059,5.628 1.232,0.322 2.535,0.366 3.806,0.538 0.037,-0.195 0.075,-0.393 0.111,-0.589 -3.894,-1.017 -7.787,-2.04 -11.684,-3.046 -4.467,-1.148 -8.941,-2.269 -13.404,-3.432 -0.754,-0.197 -1.9,0.049 -1.803,-1.388 0.011,-0.158 -0.719,-0.416 -1.13,-0.545 -2.111,-0.655 -4.228,-1.283 -6.258,-1.897 -1.98,2.626 -4.595,0.777 -6.729,1.33 -0.19,-0.309 -0.324,-0.425 -0.307,-0.513 0.469,-2.547 -0.858,-3.403 -3.155,-3.983 -4.343,-1.097 -8.592,-2.56 -12.882,-3.869 -7.552,-2.304 -15.1,-4.615 -22.662,-6.888 -0.893,-0.269 -1.855,-0.436 -2.786,-0.437 -33.168,-0.022 -66.336,-0.019 -99.505,-0.019 l -1.892,0 c -0.059,0.788 -0.148,1.45 -0.151,2.112 -0.014,3.988 -0.041,7.976 0.013,11.964 0.015,1.2 -0.332,1.649 -1.602,1.678 -5.026,0.12 -5.021,0.163 -5.026,-4.886 -0.002,-3.291 -0.015,-6.581 -0.03,-9.873 0,-0.121 -0.063,-0.243 -0.008,-0.045 -10.092,9.797 -20.298,19.707 -30.505,29.617 0.069,0.16 0.139,0.323 0.208,0.485 0.646,0.033 1.293,0.097 1.939,0.097 36.523,0.005 73.049,0.203 109.568,-0.1 13.389,-0.111 26.779,-1.267 40.15,-2.207 12.363,-0.867 24.702,-2.082 37.052,-3.144 1.511,-0.13 3.024,-0.264 4.535,-0.407 0.309,-0.029 0.812,-0.019 0.888,-0.185 0.823,-1.769 2.081,-0.79 3.166,-0.5 2.134,0.572 4.237,1.268 6.37,1.844 0.67,0.181 1.398,0.146 2.1,0.211 C -0.013,0.316 -0.007,0.158 0,0" /></g><g
           transform="translate(311.9697,355.3223)"
           id="g44"><path
             id="path46"
             class="fill-vtelca" style="fill-opacity:1;fill-rule:evenodd;stroke:none"
             d="m 0,0 0,-23.028 -29.277,0 0,44.602 98.704,0 0,-44.585 -22.77,0 L 46.657,0 0,0 Z" /></g><path
           id="path48"
           class="fill-vtelca" style="fill-opacity:1;fill-rule:evenodd;stroke:none"
           d="m 240.704,376.936 35.134,0 0,-44.591 -35.134,0 0,44.591 z" /><g
           transform="translate(455.6953,411.1777)"
           id="g50"><path
             id="path52"
             class="fill-vtelca" style="fill-opacity:1;fill-rule:evenodd;stroke:none"
             d="m 0,0 c 6.347,1.883 12.691,3.772 19.041,5.646 51.396,15.148 102.792,30.292 154.188,45.441 40.365,11.897 80.729,23.8 121.093,35.695 5.079,1.496 5.111,1.511 9.157,-1.934 1.85,-1.575 0.811,-3.721 0.732,-5.827 -1.075,0.906 -2.246,1.725 -3.202,2.743 -1.317,1.399 -2.683,1.377 -4.414,0.88 C 283.415,78.861 270.212,75.161 257.014,71.442 190.599,52.724 124.184,34.008 57.769,15.293 39.521,10.152 21.274,5.014 3.019,-0.099 2.073,-0.363 1.055,-0.367 0.068,-0.494 0.046,-0.329 0.023,-0.164 0,0" /></g><g
           transform="translate(462.9253,410.418)"
           id="g54"><path
             id="path56"
             class="fill-vtelca" style="fill-opacity:1;fill-rule:evenodd;stroke:none"
             d="M 0,0 C 5.633,1.604 11.264,3.219 16.901,4.806 60.928,17.207 104.958,29.598 148.983,42 c 45.912,12.933 91.827,25.853 137.716,38.863 3.165,0.896 5.472,0.826 8.361,-1.353 2.735,-2.066 2.678,-4.203 2.558,-7.166 -1.679,1.316 -3.245,2.414 -4.652,3.688 -1.13,1.022 -2.253,1.062 -3.622,0.694 C 220.71,58.252 152.074,39.793 83.434,21.343 56.894,14.208 30.348,7.092 3.797,-0.004 2.605,-0.324 1.337,-0.354 0.105,-0.52 0.07,-0.347 0.036,-0.174 0,0" /></g><g
           transform="translate(763.9404,406.792)"
           id="g58"><path
             id="path60"
             class="fill-vtelca" style="fill-opacity:1;fill-rule:evenodd;stroke:none"
             d="m 0,0 c -2.935,1.13 -5.599,1.927 -8.05,3.149 -4.366,2.18 -8.779,2.293 -13.554,1.672 -20.696,-2.695 -41.426,-5.114 -62.143,-7.646 -21.282,-2.6 -42.562,-5.228 -63.844,-7.819 -17.201,-2.095 -34.409,-4.152 -51.611,-6.233 -4.77,-0.577 -9.536,-1.185 -14.19,-1.764 3.398,3.178 7.831,3.446 12.192,4.03 18.49,2.473 36.973,5.002 55.46,7.497 16.355,2.209 32.717,4.388 49.073,6.6 17.357,2.349 34.711,4.722 52.068,7.08 9.462,1.286 18.92,2.597 28.393,3.797 1.188,0.152 2.527,-0.112 3.672,-0.526 C -8.798,8.486 -5.107,7.005 -1.431,5.496 -0.937,5.294 -0.358,4.704 -0.274,4.216 -0.054,2.931 -0.085,1.603 0,0" /></g><g
           transform="translate(557.792,393.25)"
           id="g62"><path
             id="path64"
             class="fill-vtelca" style="fill-opacity:1;fill-rule:evenodd;stroke:none"
             d="m 0,0 c 0.874,2.061 2.183,2.795 4.034,3.066 26.027,3.81 52.046,7.666 78.066,11.53 28.895,4.289 57.789,8.591 86.682,12.895 7.193,1.072 14.375,2.212 21.577,3.213 1.12,0.154 2.408,-0.058 3.471,-0.473 3.582,-1.401 7.118,-2.928 10.619,-4.519 0.562,-0.255 1.119,-1.047 1.223,-1.666 0.194,-1.164 0.055,-2.384 0.055,-3.903 -0.95,0.451 -1.743,0.87 -2.566,1.215 -3.438,1.443 -6.879,2.88 -10.336,4.277 -0.498,0.201 -1.107,0.303 -1.636,0.233 C 168.38,22.779 145.576,19.653 122.767,16.562 104.531,14.091 86.29,11.668 68.055,9.201 50.758,6.863 33.467,4.488 16.173,2.142 10.852,1.42 5.526,0.731 0,0" /></g><g
           transform="translate(561.0371,398.0098)"
           id="g66"><path
             id="path68"
             class="fill-vtelca" style="fill-opacity:1;fill-rule:evenodd;stroke:none"
             d="m 0,0 c 0.263,1.977 1.379,2.633 3.174,2.919 20.104,3.201 40.194,6.483 60.288,9.741 17.475,2.832 34.951,5.654 52.425,8.49 18.408,2.986 36.815,5.985 55.223,8.977 5.617,0.914 11.227,1.86 16.854,2.698 0.877,0.13 1.908,-0.057 2.731,-0.413 3.474,-1.501 6.913,-3.086 10.319,-4.738 0.518,-0.252 1.044,-0.982 1.124,-1.551 0.17,-1.231 0.051,-2.502 0.051,-4.084 -1.066,0.554 -1.905,1.034 -2.779,1.436 -3.044,1.397 -6.092,2.786 -9.16,4.128 -0.545,0.238 -1.225,0.399 -1.8,0.314 -17.263,-2.553 -34.52,-5.15 -51.781,-7.719 C 120.909,17.852 105.145,15.539 89.385,13.194 73.687,10.859 57.995,8.496 42.298,6.154 28.414,4.083 14.529,2.022 0.645,-0.037 0.464,-0.063 0.272,-0.018 0,0" /></g><g
           transform="translate(762.8379,427.019)"
           id="g70"><path
             id="path72"
             class="fill-vtelca" style="fill-opacity:1;fill-rule:evenodd;stroke:none"
             d="m 0,0 c -3.718,1.802 -7.248,3.567 -10.835,5.211 -0.784,0.359 -1.806,0.507 -2.657,0.372 -17.48,-2.782 -34.95,-5.612 -52.423,-8.446 -18.407,-2.986 -36.812,-5.991 -55.219,-8.976 -18.345,-2.975 -36.693,-5.929 -55.038,-8.899 -7.363,-1.191 -14.723,-2.4 -22.086,-3.595 -0.546,-0.09 -1.1,-0.126 -1.702,-0.194 0.025,1.689 0.569,2.547 2.315,2.844 13.083,2.228 26.094,4.989 39.241,6.714 7.967,1.046 15.661,3.211 23.58,4.38 11.547,1.707 23.01,3.967 34.517,5.943 1.599,0.274 3.273,0.121 4.867,0.417 10.548,1.958 21.072,4.064 31.629,5.973 16.793,3.038 33.607,5.967 50.418,8.899 0.751,0.13 1.664,10e-4 2.359,-0.318 C -7.653,8.77 -4.312,7.127 -0.982,5.464 -0.576,5.261 -0.076,4.769 -0.046,4.375 0.068,2.963 0,1.537 0,0" /></g><g
           transform="translate(760.8789,475.5244)"
           id="g74"><path
             id="path76"
             class="fill-vtelca" style="fill-opacity:1;fill-rule:evenodd;stroke:none"
             d="m 0,0 c -2.081,1.572 -3.906,2.903 -5.675,4.304 -0.912,0.722 -1.775,0.902 -2.948,0.602 -31.948,-8.21 -63.905,-16.383 -95.862,-24.554 -28.408,-7.265 -56.807,-14.562 -85.245,-21.705 -2.299,-0.577 -4.867,-0.076 -7.404,0.338 0.529,0.191 1.049,0.421 1.59,0.566 61.638,16.559 123.28,33.098 184.903,49.711 2.653,0.714 4.854,0.79 6.763,-1.407 C -3.594,7.528 -3.219,7.206 -2.821,7.063 0.62,5.824 0.14,3.019 0,0" /></g><g
           transform="translate(570.7627,429.8257)"
           id="g78"><path
             id="path80"
             class="fill-vtelca" style="fill-opacity:1;fill-rule:evenodd;stroke:none"
             d="m 0,0 c -0.552,1.803 0.121,2.467 1.74,2.877 42.918,10.912 85.825,21.867 128.734,32.824 16.218,4.14 32.443,8.262 48.637,12.496 2.494,0.653 4.574,0.759 6.539,-1.208 0.915,-0.914 2.269,-1.373 3.277,-2.216 0.612,-0.511 1.17,-1.306 1.346,-2.068 0.278,-1.199 0.213,-2.477 0.325,-4.202 -1.807,1.288 -3.387,2.183 -4.68,3.386 -2.191,2.043 -4.422,2.011 -7.231,1.323 C 144.818,34.909 110.914,26.748 77.022,18.543 65.978,15.87 54.938,13.179 43.896,10.496 33.842,8.053 23.789,5.606 13.734,3.165 9.502,2.136 5.268,1.116 1.032,0.103 0.731,0.03 0.408,0.039 0,0" /></g><g
           transform="translate(761.5957,461.3237)"
           id="g82"><path
             id="path84"
             class="fill-vtelca" style="fill-opacity:1;fill-rule:evenodd;stroke:none"
             d="m 0,0 c -2.778,1.856 -5.134,3.514 -7.586,5.013 -0.646,0.396 -1.65,0.569 -2.39,0.401 -27.544,-6.26 -55.076,-12.57 -82.61,-18.87 -0.173,-0.041 -0.359,-0.028 -0.741,-0.053 1.075,2.424 2.081,4.285 5.05,4.989 25.818,6.126 51.596,12.433 77.376,18.726 1.659,0.406 2.991,0.269 4.384,-0.816 C -4.932,8.155 -3.092,7.251 -1.468,6.062 -0.89,5.638 -0.394,4.843 -0.254,4.14 -0.014,2.929 -0.082,1.659 0,0" /></g><g
           transform="translate(762.7979,433.6494)"
           id="g86"><path
             id="path88"
             class="fill-vtelca" style="fill-opacity:1;fill-rule:evenodd;stroke:none"
             d="m 0,0 c -3.602,1.894 -6.785,3.653 -10.057,5.232 -0.928,0.449 -2.163,0.662 -3.172,0.487 -25.208,-4.37 -50.403,-8.805 -75.602,-13.224 -0.303,-0.053 -0.618,-0.034 -0.982,-0.051 -0.062,0.281 -0.146,0.518 -0.16,0.76 -0.184,3.014 -0.185,3.032 2.802,3.597 24.763,4.686 49.527,9.373 74.3,14.011 0.791,0.148 1.771,-0.05 2.508,-0.408 C -7.3,8.92 -4.283,7.336 -1.284,5.724 -0.844,5.487 -0.357,4.939 -0.291,4.477 -0.094,3.12 -0.096,1.733 0,0" /></g><g
           transform="translate(673.0068,431.813)"
           id="g90"><path
             id="path92"
             class="fill-vtelca" style="fill-opacity:1;fill-rule:evenodd;stroke:none"
             d="m 0,0 c -0.557,3.733 -0.535,3.735 2.88,4.423 24.718,4.986 49.433,9.991 74.16,14.929 0.95,0.19 2.144,-0.005 3.017,-0.438 2.767,-1.37 5.46,-2.899 8.123,-4.465 0.521,-0.307 1.031,-1.022 1.111,-1.609 0.17,-1.232 0.052,-2.503 0.052,-4.137 -0.888,0.546 -1.574,0.998 -2.29,1.4 -2.535,1.424 -5.059,2.872 -7.639,4.211 -0.542,0.283 -1.328,0.302 -1.954,0.184 C 51.869,9.684 26.283,4.839 0.696,0.004 0.514,-0.031 0.32,0 0,0" /></g><g
           transform="translate(762.0752,447.5098)"
           id="g94"><path
             id="path96"
             class="fill-vtelca" style="fill-opacity:1;fill-rule:evenodd;stroke:none"
             d="m 0,0 c -3.088,1.823 -5.92,3.558 -8.825,5.164 -0.682,0.379 -1.659,0.579 -2.414,0.427 -25.781,-5.167 -51.55,-10.387 -77.322,-15.596 -0.12,-0.024 -0.25,-0.003 -0.539,-0.003 l 0,3.8 c 4.769,1.034 9.579,2.079 14.389,3.115 21.009,4.527 42.015,9.069 63.037,13.523 1.038,0.219 2.363,-0.078 3.337,-0.567 C -5.915,8.651 -3.581,7.25 -1.3,5.786 -0.7,5.4 -0.182,4.552 -0.056,3.841 0.148,2.682 0,1.459 0,0" /></g><g
           transform="translate(761.7119,454.4668)"
           id="g98"><path
             id="path100"
             class="fill-vtelca" style="fill-opacity:1;fill-rule:evenodd;stroke:none"
             d="m 0,0 c -2.893,1.819 -5.462,3.51 -8.117,5.054 -0.66,0.384 -1.652,0.543 -2.401,0.382 -25.82,-5.523 -51.63,-11.098 -77.445,-16.661 -0.235,-0.05 -0.485,-0.029 -0.634,-0.037 -0.948,0.909 0.856,3.049 -1.656,3.404 2.291,0.537 4.581,1.084 6.876,1.61 24.197,5.535 48.394,11.081 72.607,16.549 0.964,0.218 2.229,-0.084 3.133,-0.561 C -5.41,8.566 -3.284,7.191 -1.181,5.801 -0.663,5.46 -0.13,4.787 -0.054,4.207 0.115,2.918 0,1.591 0,0" /></g><g
           transform="translate(544.7476,387.4551)"
           id="g102"><path
             id="path104"
             class="fill-vtelca" style="fill-opacity:1;fill-rule:evenodd;stroke:none"
             d="m 0,0 c -34.127,-4.152 -68.255,-8.306 -102.383,-12.457 -0.044,0.217 -0.088,0.435 -0.132,0.653 0.844,0.189 1.678,0.44 2.531,0.556 15.656,2.132 31.316,4.248 46.974,6.366 15.971,2.162 31.937,4.376 47.926,6.405 C -3.461,1.73 -1.699,0.83 -0.001,0.443 0,0.295 0,0.147 0,0" /></g><g
           transform="translate(430.2412,319.2666)"
           id="g106"><path
             id="path108"
             class="fill-vtelca" style="fill-opacity:1;fill-rule:evenodd;stroke:none"
             d="m 0,0 -2.714,0 0,50.282 2.69,0 0,-44.881 C -0.559,5.322 -1.106,5.239 -1.819,5.134 -1.139,5.057 -0.621,4.999 0,4.929 L 0,0 Z" /></g><g
           transform="translate(534.0449,415.1792)"
           id="g110"><path
             id="path112"
             class="fill-vtelca" style="fill-opacity:1;fill-rule:evenodd;stroke:none"
             d="m 0,0 c 0.155,-1.798 -0.625,-2.21 -1.855,-2.474 -24.517,-5.266 -49.023,-10.572 -73.534,-15.865 -5.063,-1.093 -10.128,-2.178 -15.194,-3.252 -0.559,-0.119 -1.138,-0.147 -1.709,-0.217 -0.037,0.215 -0.074,0.43 -0.111,0.644 C -61.647,-14.119 -30.891,-7.076 0,0" /></g><path
           id="path114"
           class="fill-vtelca" style="fill-opacity:1;fill-rule:evenodd;stroke:none"
           d="m 280.627,332.239 -2.708,0 0,44.67 2.708,0 0,-44.67 z" /><g
           transform="translate(441.8325,391.4492)"
           id="g116"><path
             id="path118"
             class="fill-vtelca" style="fill-opacity:1;fill-rule:evenodd;stroke:none"
             d="m 0,0 c 30.449,6.571 60.899,13.143 91.467,19.738 l 0,-2.06 C 60.994,11.512 30.569,5.354 0.145,-0.803 0.096,-0.535 0.048,-0.267 0,0" /></g><g
           transform="translate(441.8726,388.8506)"
           id="g120"><path
             id="path122"
             class="fill-vtelca" style="fill-opacity:1;fill-rule:evenodd;stroke:none"
             d="M 0,0 C 30.341,6.142 60.683,12.284 91.56,18.534 90.713,17.11 90.269,16.191 88.915,15.937 66.055,11.645 43.2,7.323 20.344,3.005 14.009,1.809 7.675,0.606 1.339,-0.585 0.932,-0.661 0.51,-0.653 0.095,-0.686 0.063,-0.457 0.031,-0.229 0,0" /></g><g
           transform="translate(442.0879,378.3877)"
           id="g124"><path
             id="path126"
             class="fill-vtelca" style="fill-opacity:1;fill-rule:evenodd;stroke:none"
             d="m 0,0 c 2.449,0.394 4.894,0.813 7.347,1.177 24.248,3.595 48.498,7.182 72.747,10.772 1.936,0.286 3.89,0.499 5.802,0.905 1.51,0.319 2.757,0.307 3.513,-1.572 C 59.647,7.259 29.874,3.233 0.103,-0.792 0.068,-0.529 0.034,-0.265 0,0" /></g><g
           transform="translate(441.855,386.2344)"
           id="g128"><path
             id="path130"
             class="fill-vtelca" style="fill-opacity:1;fill-rule:evenodd;stroke:none"
             d="M 0,0 C 29.694,5.616 59.389,11.232 89.126,16.855 89.2,15.203 88.469,14.652 87.144,14.423 63.05,10.23 38.962,6.007 14.873,1.787 10.329,0.99 5.789,0.178 1.247,-0.621 0.888,-0.686 0.522,-0.706 0.16,-0.747 0.106,-0.498 0.053,-0.249 0,0" /></g><g
           transform="translate(529.8394,399.0977)"
           id="g132"><path
             id="path134"
             class="fill-vtelca" style="fill-opacity:1;fill-rule:evenodd;stroke:none"
             d="m 0,0 c 0.189,-1.492 -0.216,-2.108 -1.617,-2.332 -28.395,-4.564 -56.783,-9.178 -85.174,-13.775 -0.348,-0.056 -0.706,-0.056 -1.113,0.259 C -58.68,-10.253 -29.366,-5.213 0,0" /></g><g
           transform="translate(442.0381,381.0449)"
           id="g136"><path
             id="path138"
             class="fill-vtelca" style="fill-opacity:1;fill-rule:evenodd;stroke:none"
             d="m 0,0 c 29.062,4.719 58.123,9.436 87.177,14.152 0.63,-1.881 0.589,-1.947 -1.118,-2.203 C 59.938,8.055 33.819,4.155 7.698,0.264 5.175,-0.112 2.646,-0.436 0.119,-0.783 0.08,-0.521 0.04,-0.26 0,0" /></g><g
           transform="translate(535.2441,419.1816)"
           id="g140"><path
             id="path142"
             class="fill-vtelca" style="fill-opacity:1;fill-rule:evenodd;stroke:none"
             d="m 0,0 c 0.129,-2.014 -1.146,-2.239 -2.413,-2.529 -22.279,-5.088 -44.557,-10.184 -66.835,-15.279 -3.432,-0.784 -6.866,-1.563 -10.298,-2.345 -0.044,0.163 -0.086,0.325 -0.13,0.485 4.817,1.336 9.602,2.797 14.455,3.983 21.279,5.201 42.578,10.324 63.872,15.469 C -0.938,-0.117 -0.511,-0.081 0,0" /></g><g
           transform="translate(542.6929,428.98)"
           id="g144"><path
             id="path146"
             class="fill-vtelca" style="fill-opacity:1;fill-rule:evenodd;stroke:none"
             d="m 0,0 c -1.759,-2.233 -3.856,-3.17 -6.357,-3.797 -20.525,-5.152 -41.013,-10.451 -61.524,-15.656 -1.354,-0.342 -2.81,-0.285 -4.219,-0.414 -0.023,0.16 -0.046,0.321 -0.067,0.481 C -48.209,-12.951 -24.253,-6.515 0,0" /></g><g
           transform="translate(537.7319,423.7769)"
           id="g148"><path
             id="path150"
             class="fill-vtelca" style="fill-opacity:1;fill-rule:evenodd;stroke:none"
             d="m 0,0 c -0.545,-1.786 -1.537,-2.503 -3.146,-2.886 -17.192,-4.095 -34.361,-8.293 -51.551,-12.41 -1.223,-0.294 -2.546,-0.173 -3.824,-0.245 -0.021,0.192 -0.041,0.383 -0.062,0.573 C -39.135,-9.998 -19.686,-5.029 0,0" /></g><g
           transform="translate(654.752,442.7554)"
           id="g152"><path
             id="path154"
             class="fill-vtelca" style="fill-opacity:1;fill-rule:evenodd;stroke:none"
             d="m 0,0 c -0.947,-2.802 -2.459,-4.366 -5.452,-4.871 -5.965,-1.004 -11.849,-2.485 -17.768,-3.76 -0.231,-0.05 -0.481,-0.007 -0.735,-0.007 0.409,2.671 1.144,3.492 3.484,4.025 6.397,1.456 12.79,2.924 19.186,4.382 C -0.923,-0.148 -0.553,-0.098 0,0" /></g><g
           transform="translate(651.3877,436.668)"
           id="g156"><path
             id="path158"
             class="fill-vtelca" style="fill-opacity:1;fill-rule:evenodd;stroke:none"
             d="m 0,0 c -0.744,-2.652 -1.893,-4.274 -4.871,-4.689 -5.233,-0.731 -10.385,-2.027 -15.572,-3.08 -0.356,-0.073 -0.723,-0.087 -1.082,-0.129 -0.35,2.963 -0.207,3.165 2.623,3.782 C -12.634,-2.75 -6.365,-1.387 0,0" /></g><g
           transform="translate(629.749,426.874)"
           id="g160"><path
             id="path162"
             class="fill-vtelca" style="fill-opacity:1;fill-rule:evenodd;stroke:none"
             d="M 0,0 C 6.271,1.269 12.432,2.516 18.671,3.777 18.176,0.979 16.885,-0.465 14.077,-0.776 10.58,-1.166 7.139,-2.06 3.661,-2.658 0.858,-3.139 0.363,-2.77 0,0" /></g><g
           transform="translate(627.9531,441.6357)"
           id="g164"><path
             id="path166"
             class="fill-vtelca" style="fill-opacity:1;fill-rule:evenodd;stroke:none"
             d="m 0,0 c -1.854,-2.453 -3.595,-4.428 -6.805,-4.805 -3.284,-0.387 -6.493,-1.402 -9.933,-2.187 0.188,2.138 0.723,3.431 2.956,3.857 4.087,0.782 8.109,1.895 12.16,2.86 C -1.152,-0.164 -0.67,-0.112 0,0" /></g><path
           id="path168"
           class="fill-vtelca" style="fill-opacity:1;fill-rule:evenodd;stroke:none"
           d="m 277.902,396.646 2.746,0 0,-13.709 -2.746,0 0,13.709 z" /><g
           transform="translate(622.1562,430.3345)"
           id="g170"><path
             id="path172"
             class="fill-vtelca" style="fill-opacity:1;fill-rule:evenodd;stroke:none"
             d="m 0,0 c 0.213,-3.153 0.217,-3.174 -2.466,-3.728 -3.455,-0.713 -6.919,-1.391 -10.383,-2.084 -0.417,2.842 -0.344,2.975 2.207,3.531 C -7.136,-1.516 -3.624,-0.775 0,0" /></g><g
           transform="translate(609.5303,419.7114)"
           id="g174"><path
             id="path176"
             class="fill-vtelca" style="fill-opacity:1;fill-rule:evenodd;stroke:none"
             d="M 0,0 C -0.839,2.684 -0.745,2.886 1.61,3.378 5.243,4.134 8.88,4.865 12.624,5.629 12.822,4.536 12.986,3.63 13.17,2.62 8.727,1.736 4.422,0.88 0,0" /></g><g
           transform="translate(623.2686,435.5791)"
           id="g178"><path
             id="path180"
             class="fill-vtelca" style="fill-opacity:1;fill-rule:evenodd;stroke:none"
             d="m 0,0 c 0.128,-2.886 -1.382,-3.675 -3.652,-4.038 -3.232,-0.515 -6.413,-1.341 -9.626,-2.036 -0.249,2.477 0.186,3.141 2.368,3.634 C -7.295,-1.623 -3.678,-0.821 0,0" /></g><g
           transform="translate(587.8989,415.6353)"
           id="g182"><path
             id="path184"
             class="fill-vtelca" style="fill-opacity:1;fill-rule:evenodd;stroke:none"
             d="M 0,0 C -0.424,2.071 0.127,2.921 2.047,3.227 6.03,3.862 9.966,4.78 13.911,5.579 14.596,2.855 14.543,2.732 11.996,2.242 8.037,1.479 4.07,0.758 0,0" /></g><g
           transform="translate(603.124,430.9604)"
           id="g186"><path
             id="path188"
             class="fill-vtelca" style="fill-opacity:1;fill-rule:evenodd;stroke:none"
             d="m 0,0 c 0.158,-2.853 0.119,-2.97 -2.346,-3.418 -4.132,-0.75 -8.275,-1.428 -12.646,-2.177 0.046,2.099 1.484,2.463 2.714,2.807 2.177,0.612 4.405,1.044 6.615,1.54 C -3.786,-0.826 -1.904,-0.419 0,0" /></g><g
           transform="translate(653.3828,422.5557)"
           id="g190"><path
             id="path192"
             class="fill-vtelca" style="fill-opacity:1;fill-rule:evenodd;stroke:none"
             d="m 0,0 c 0.374,2.7 1.339,4.417 4.232,4.546 1.935,0.086 3.849,0.638 5.921,1.009 l 0,-3.768 C 6.827,1.202 3.449,0.606 0,0" /></g><g
           transform="translate(648.3057,443.2939)"
           id="g194"><path
             id="path196"
             class="fill-vtelca" style="fill-opacity:1;fill-rule:evenodd;stroke:none"
             d="M 0,0 C 0.792,1.141 1.545,2.294 2.378,3.389 2.658,3.758 3.101,4.123 3.535,4.234 6.27,4.938 9.022,5.569 11.879,6.251 8.381,1.686 6.158,0.529 0,0" /></g><g
           transform="translate(441.5137,399.1875)"
           id="g198"><path
             id="path200"
             class="fill-vtelca" style="fill-opacity:1;fill-rule:evenodd;stroke:none"
             d="M 0,0 C 10.327,2.643 20.655,5.285 30.983,7.928 21.031,3.829 10.516,1.838 0.16,-0.748 0.107,-0.498 0.053,-0.25 0,0" /></g><g
           transform="translate(555.6045,399.4766)"
           id="g202"><path
             id="path204"
             class="fill-vtelca" style="fill-opacity:1;fill-rule:evenodd;stroke:none"
             d="m 0,0 c -0.031,-1.802 -0.601,-2.66 -2.411,-2.779 -2.383,-0.156 -4.74,-0.698 -7.114,-1.026 -1.694,-0.234 -1.699,-0.199 -2.355,1.848 C -7.919,-1.305 -3.997,-0.658 0,0" /></g><g
           transform="translate(572.3306,408.3242)"
           id="g206"><path
             id="path208"
             class="fill-vtelca" style="fill-opacity:1;fill-rule:evenodd;stroke:none"
             d="M 0,0 C -0.347,1.8 -0.041,2.834 1.914,2.951 3.345,3.037 4.756,3.454 6.176,3.732 8.882,4.264 8.882,4.266 10.542,1.846 6.985,1.224 3.512,0.615 0,0" /></g><g
           transform="translate(582.6743,426.2866)"
           id="g210"><path
             id="path212"
             class="fill-vtelca" style="fill-opacity:1;fill-rule:evenodd;stroke:none"
             d="m 0,0 c 0.062,-2.111 -0.84,-3.055 -2.783,-3.313 -2.02,-0.266 -4.007,-0.8 -6.034,-1.222 -0.456,1.765 -0.087,2.674 1.673,2.97 C -4.76,-1.165 -2.414,-0.54 0,0" /></g><g
           transform="translate(580.8193,416.9478)"
           id="g214"><path
             id="path216"
             class="fill-vtelca" style="fill-opacity:1;fill-rule:evenodd;stroke:none"
             d="m 0,0 c 0.067,-0.913 0.123,-1.648 0.192,-2.598 -2.775,-0.541 -5.471,-1.067 -8.292,-1.617 -0.187,1.741 0.065,2.849 2.067,3.06 C -4.048,-0.946 -2.096,-0.415 0,0" /></g><g
           transform="translate(573.123,417.2139)"
           id="g218"><path
             id="path220"
             class="fill-vtelca" style="fill-opacity:1;fill-rule:evenodd;stroke:none"
             d="M 0,0 C 0.093,1 0.16,1.727 0.242,2.603 2.939,3.181 5.598,3.751 8.279,4.326 8.582,2.179 7.778,1.318 5.819,1.13 3.92,0.946 2.054,0.414 0,0" /></g><g
           transform="translate(554.3569,395.1406)"
           id="g222"><path
             id="path224"
             class="fill-vtelca" style="fill-opacity:1;fill-rule:evenodd;stroke:none"
             d="m 0,0 c -1.829,-4.371 -5.736,-2.34 -8.524,-3.699 -0.313,0.807 -0.552,1.422 -0.887,2.281 C -6.297,-0.949 -3.351,-0.504 0,0" /></g><path
           id="path226"
           class="fill-vtelca" style="fill-opacity:1;fill-rule:evenodd;stroke:none"
           d="m 277.9,328.775 2.759,0 0,-6.222 -2.759,0 0,6.222 z" /><g
           transform="translate(569.042,431.1714)"
           id="g228"><path
             id="path230"
             class="fill-vtelca" style="fill-opacity:1;fill-rule:evenodd;stroke:none"
             d="m 0,0 c -0.471,-0.741 -0.827,-1.994 -1.433,-2.131 -2.259,-0.507 -4.494,-1.911 -7.323,-1.003 2.484,2.688 5.502,2.765 8.213,3.596 C -0.362,0.308 -0.181,0.154 0,0" /></g><g
           transform="translate(596.1572,421.8545)"
           id="g232"><path
             id="path234"
             class="fill-vtelca" style="fill-opacity:1;fill-rule:evenodd;stroke:none"
             d="M 0,0 C 0.213,0.954 0.4,1.795 0.663,2.97 2.293,3.346 4.166,3.779 6.041,4.211 6.652,1.763 6.374,1.265 4.242,0.839 2.759,0.543 1.276,0.253 0,0" /></g><g
           transform="translate(551.0356,410.9395)"
           id="g236"><path
             id="path238"
             class="fill-vtelca" style="fill-opacity:1;fill-rule:evenodd;stroke:none"
             d="M 0,0 C 2.023,0.404 4.031,0.807 6.041,1.209 6.718,-0.541 6.076,-1.299 4.395,-1.502 2.97,-1.674 1.565,-1.992 0,-2.271 L 0,0 Z" /></g><g
           transform="translate(556.8989,407.9629)"
           id="g240"><path
             id="path242"
             class="fill-vtelca" style="fill-opacity:1;fill-rule:evenodd;stroke:none"
             d="m 0,0 0,-2.334 c -2.04,-0.363 -4.055,-0.722 -6.098,-1.086 -0.497,1.631 -0.111,2.46 1.62,2.607 C -3.047,-0.691 -1.642,-0.31 0,0" /></g><g
           transform="translate(602.8867,413.6855)"
           id="g244"><path
             id="path246"
             class="fill-vtelca" style="fill-opacity:1;fill-rule:evenodd;stroke:none"
             d="M 0,0 C -1.91,-0.336 -3.625,-0.638 -5.353,-0.942 -5.475,2.032 -5.475,2.032 -0.86,2.785 -0.602,1.946 -0.333,1.082 0,0" /></g><g
           transform="translate(557.5615,420.2437)"
           id="g248"><path
             id="path250"
             class="fill-vtelca" style="fill-opacity:1;fill-rule:evenodd;stroke:none"
             d="m 0,0 c -0.079,-0.748 -0.143,-1.36 -0.217,-2.066 -1.74,-0.39 -3.441,-0.775 -5.147,-1.147 -0.23,-0.05 -0.474,-0.028 -0.706,-0.038 C -6.381,-0.963 -4.56,0.025 0,0" /></g><g
           transform="translate(551.2676,412.7812)"
           id="g252"><path
             id="path254"
             class="fill-vtelca" style="fill-opacity:1;fill-rule:evenodd;stroke:none"
             d="m 0,0 c -0.159,2.514 1.024,3.139 5.982,3.353 l 0,-2.134 C 5.007,1.021 4.033,0.826 3.059,0.628 2.078,0.428 1.099,0.225 0,0" /></g><g
           transform="translate(549.4258,400.2246)"
           id="g256"><path
             id="path258"
             class="fill-vtelca" style="fill-opacity:1;fill-rule:evenodd;stroke:none"
             d="m 0,0 c -2.264,-0.353 -4.191,-0.654 -6.243,-0.975 -0.255,0.638 -0.48,1.199 -0.799,1.995 2.126,0.388 4.082,0.748 6.17,1.13 C -0.582,1.434 -0.329,0.811 0,0" /></g><g
           transform="translate(556.5059,403.4687)"
           id="g260"><path
             id="path262"
             class="fill-vtelca" style="fill-opacity:1;fill-rule:evenodd;stroke:none"
             d="M 0,0 C -0.283,-2.363 -1.787,-3.043 -5.861,-2.771 -6.226,-0.649 -4.36,0.254 0,0" /></g><g
           transform="translate(625.2412,417.6016)"
           id="g264"><path
             id="path266"
             class="fill-vtelca" style="fill-opacity:1;fill-rule:evenodd;stroke:none"
             d="m 0,0 c -1.839,-0.311 -3.427,-0.579 -5.631,-0.95 0.389,1.338 0.37,2.785 1.034,3.248 C -3.039,3.382 -2.167,2.834 0,0" /></g><g
           transform="translate(541.8281,402.9482)"
           id="g268"><path
             id="path270"
             class="fill-vtelca" style="fill-opacity:1;fill-rule:evenodd;stroke:none"
             d="M 0,0 C -0.228,0.742 -0.407,1.329 -0.63,2.055 1.342,2.429 3.181,2.776 5.189,3.155 5.479,2.508 5.746,1.907 6.101,1.113 4.035,0.735 2.139,0.392 0,0" /></g><g
           transform="translate(540.5464,406.6445)"
           id="g272"><path
             id="path274"
             class="fill-vtelca" style="fill-opacity:1;fill-rule:evenodd;stroke:none"
             d="M 0,0 C -0.245,0.756 -0.413,1.275 -0.652,2.016 1.007,2.361 2.561,2.82 4.139,2.941 4.717,2.986 5.355,2.228 5.965,1.836 5.893,1.61 5.821,1.385 5.747,1.16 3.889,0.784 2.028,0.409 0,0" /></g><g
           transform="translate(662.8281,438.8574)"
           id="g276"><path
             id="path278"
             class="fill-vtelca" style="fill-opacity:1;fill-rule:evenodd;stroke:none"
             d="M 0,0 C 0.149,-1.038 0.299,-2.088 0.482,-3.376 -0.906,-3.671 -2.229,-3.952 -3.595,-4.24 -3.262,-0.927 -2.472,0.001 0,0" /></g><g
           transform="translate(557.6958,424.5234)"
           id="g280"><path
             id="path282"
             class="fill-vtelca" style="fill-opacity:1;fill-rule:evenodd;stroke:none"
             d="M 0,0 C 0.046,-2.442 -0.544,-2.773 -5.464,-3.207 -4.878,-0.664 -4.291,-0.312 0,0" /></g><g
           transform="translate(642.1777,424.0508)"
           id="g284"><path
             id="path286"
             class="fill-vtelca" style="fill-opacity:1;fill-rule:evenodd;stroke:none"
             d="M 0,0 C 1.184,0.249 2.331,0.489 3.503,0.734 3.286,-2.33 2.483,-3.253 0,-3.277 L 0,0 Z" /></g><g
           transform="translate(564.2095,415.4497)"
           id="g288"><path
             id="path290"
             class="fill-vtelca" style="fill-opacity:1;fill-rule:evenodd;stroke:none"
             d="M 0,0 C -0.072,0.82 -0.13,1.492 -0.207,2.353 1.079,2.62 2.281,2.87 3.504,3.123 3.644,0.576 3.644,0.576 0,0" /></g><g
           transform="translate(540.6865,410.6299)"
           id="g292"><path
             id="path294"
             class="fill-vtelca" style="fill-opacity:1;fill-rule:evenodd;stroke:none"
             d="M 0,0 C -0.25,2.441 1.383,2.587 2.765,2.69 3.25,2.726 3.802,1.868 4.323,1.419 4.259,1.237 4.193,1.057 4.129,0.876 2.779,0.59 1.429,0.304 0,0" /></g><g
           transform="translate(531.543,393.5254)"
           id="g296"><path
             id="path298"
             class="fill-vtelca" style="fill-opacity:1;fill-rule:evenodd;stroke:none"
             d="M 0,0 0,2.028 C 1.489,1.965 3.363,3.684 4.101,0.646 2.766,0.436 1.462,0.23 0,0" /></g><g
           transform="translate(564.3022,411.1641)"
           id="g300"><path
             id="path302"
             class="fill-vtelca" style="fill-opacity:1;fill-rule:evenodd;stroke:none"
             d="M 0,0 C -0.167,2.704 -0.167,2.704 3.02,2.88 2.964,2.138 2.912,1.411 2.85,0.561 1.911,0.375 1.018,0.2 0,0" /></g><g
           transform="translate(579.9888,427.7134)"
           id="g304"><path
             id="path306"
             class="fill-vtelca" style="fill-opacity:1;fill-rule:evenodd;stroke:none"
             d="M 0,0 C 1.927,1.383 3.678,2.64 5.429,3.897 4.738,1.007 2.872,-0.08 0,0" /></g><g
           transform="translate(563.9697,406.9619)"
           id="g308"><path
             id="path310"
             class="fill-vtelca" style="fill-opacity:1;fill-rule:evenodd;stroke:none"
             d="M 0,0 C -0.135,2.476 -0.026,2.583 2.586,2.69 3.1,0.396 2.968,0.252 0,0" /></g><g
           transform="translate(537.5693,392.5898)"
           id="g312"><path
             id="path314"
             class="fill-vtelca" style="fill-opacity:1;fill-rule:evenodd;stroke:none"
             d="M 0,0 C -1.546,-2.604 -2.732,-2.664 -5.151,-0.687 -3.456,-0.461 -1.975,-0.264 0,0" /></g><g
           transform="translate(566.0698,426.3521)"
           id="g316"><path
             id="path318"
             class="fill-vtelca" style="fill-opacity:1;fill-rule:evenodd;stroke:none"
             d="m 0,0 c -0.903,-0.873 -1.806,-1.745 -2.709,-2.617 -0.427,0.525 -0.853,1.05 -1.538,1.892 1.597,0.435 2.792,0.761 3.987,1.088 C -0.173,0.242 -0.086,0.122 0,0" /></g><g
           transform="translate(568.1279,423.4614)"
           id="g320"><path
             id="path322"
             class="fill-vtelca" style="fill-opacity:1;fill-rule:evenodd;stroke:none"
             d="M 0,0 C 0.311,-3.087 0.29,-3.11 -2.867,-3.412 -1.888,-2.247 -1.079,-1.283 0,0" /></g><g
           transform="translate(604.3608,435.6909)"
           id="g324"><path
             id="path326"
             class="fill-vtelca" style="fill-opacity:1;fill-rule:evenodd;stroke:none"
             d="m 0,0 c -0.295,-2.813 -0.295,-2.813 -2.803,-3.107 0.809,1.24 1.558,2.387 2.307,3.533 C -0.33,0.285 -0.166,0.143 0,0" /></g><g
           transform="translate(534.563,397.791)"
           id="g328"><path
             id="path330"
             class="fill-vtelca" style="fill-opacity:1;fill-rule:evenodd;stroke:none"
             d="m 0,0 c -1.274,-0.158 -2.049,-0.254 -2.825,-0.352 -0.127,0.19 -0.253,0.379 -0.38,0.569 0.632,0.562 1.263,1.125 1.894,1.686 C -0.94,1.365 -0.57,0.826 0,0" /></g><g
           transform="translate(553.998,426.1167)"
           id="g332"><path
             id="path334"
             class="fill-vtelca" style="fill-opacity:1;fill-rule:evenodd;stroke:none"
             d="M 0,0 C 1.285,0.584 2.57,1.17 3.881,1.767 4.166,0.3 4.166,0.3 0,0" /></g><g
           transform="translate(440.5112,365.2676)"
           id="g336"><path
             id="path338"
             style="fill:#ffffff;fill-opacity:1;fill-rule:evenodd;stroke:none"
             d="m 0,0 c -0.698,1.303 -0.226,1.746 1.045,1.847 11.414,0.891 22.826,1.801 34.236,2.721 13.365,1.078 26.727,2.178 40.092,3.256 11.788,0.952 23.579,1.877 35.367,2.83 13.301,1.076 26.599,2.176 39.901,3.256 10.085,0.82 20.173,1.621 30.26,2.436 11.725,0.945 23.449,1.898 35.174,2.847 11.725,0.95 23.45,1.895 35.175,2.845 11.851,0.96 23.702,1.919 35.551,2.891 6.555,0.538 13.106,1.124 19.663,1.626 0.853,0.064 1.757,-0.158 2.598,-0.391 31.896,-8.875 63.788,-17.766 95.681,-26.657 11.928,-3.325 23.85,-6.671 35.782,-9.983 1.082,-0.3 2.017,-0.551 1.144,-2.108 -5.229,1.452 -10.452,2.896 -15.672,4.351 -39.017,10.864 -78.029,21.743 -117.057,32.56 -1.417,0.394 -3.005,0.386 -4.491,0.272 C 292.91,23.707 281.375,22.744 269.839,21.805 258.115,20.853 246.39,19.902 234.665,18.951 222.814,17.989 210.962,17.029 199.112,16.069 187.449,15.126 175.787,14.187 164.124,13.244 150.633,12.151 137.144,11.055 123.653,9.965 113.629,9.154 103.605,8.355 93.583,7.545 80.219,6.464 66.855,5.37 53.491,4.291 41.703,3.34 29.913,2.406 18.125,1.457 12.64,1.016 7.157,0.551 1.674,0.102 1.112,0.057 0.548,0.033 0,0" /></g><g
           transform="translate(440.4712,362.7012)"
           id="g340"><path
             id="path342"
             style="fill:#ffffff;fill-opacity:1;fill-rule:evenodd;stroke:none"
             d="m 0,0 c -0.584,1.22 -0.251,1.707 1.1,1.793 13.697,0.875 27.393,1.777 41.087,2.697 15.966,1.072 31.928,2.181 47.895,3.255 14.135,0.952 28.273,1.868 42.409,2.818 14.071,0.947 28.142,1.921 42.215,2.873 12.179,0.822 24.36,1.62 36.54,2.439 14.198,0.954 28.396,1.922 42.594,2.877 12.117,0.816 24.235,1.616 36.352,2.434 5.047,0.341 10.09,0.762 15.14,1.041 1.297,0.07 2.651,-0.12 3.92,-0.43 37.203,-9.09 74.399,-18.207 111.593,-27.324 6.505,-1.594 12.999,-3.234 19.515,-4.779 1.31,-0.311 1.642,-0.749 0.723,-1.967 -7.942,1.943 -15.908,3.892 -23.874,5.843 -35.968,8.811 -71.929,17.645 -107.916,26.373 -2.215,0.537 -4.644,0.462 -6.951,0.313 C 281.641,18.92 260.944,17.502 240.245,16.111 217.589,14.59 194.933,13.072 172.278,11.551 149.686,10.035 127.094,8.515 104.501,6.996 81.847,5.475 59.191,3.959 36.537,2.432 24.673,1.631 12.812,0.811 0.949,0.002 0.637,-0.02 0.323,0 0,0" /></g><g
           transform="translate(440.3687,361.749)"
           id="g344"><path
             id="path346"
             style="fill:#ffffff;fill-opacity:1;fill-rule:evenodd;stroke:none"
             d="m 0,0 c 4.746,0.277 9.412,0.566 14.08,0.815 18.631,0.998 37.263,1.984 55.896,2.97 15.537,0.821 31.075,1.628 46.611,2.459 20.653,1.105 41.303,2.23 61.955,3.339 16.546,0.889 33.093,1.768 49.64,2.65 16.61,0.887 33.221,1.769 49.83,2.668 8.967,0.485 17.928,1.162 26.902,1.414 2.966,0.084 5.988,-0.774 8.944,-1.397 41.865,-8.824 83.724,-17.68 125.58,-26.547 0.565,-0.118 1.495,-0.415 1.542,-0.735 0.178,-1.197 -0.582,-1.206 -1.566,-0.993 -6.919,1.489 -13.853,2.915 -20.778,4.378 -31.597,6.675 -63.196,13.357 -94.794,20.037 -4.821,1.019 -9.62,2.183 -14.477,2.992 -2.648,0.439 -5.407,0.482 -8.097,0.346 -20.655,-1.053 -41.305,-2.2 -61.956,-3.309 C 222.765,10.198 206.218,9.319 189.671,8.436 173.062,7.548 156.452,6.66 139.841,5.771 123.231,4.884 106.622,3.995 90.011,3.108 73.464,2.224 56.917,1.335 40.369,0.46 27.42,-0.226 14.472,-0.879 1.526,-1.59 0.397,-1.653 -0.417,-1.702 0,0" /></g><g
           transform="translate(440.4614,359.1982)"
           id="g348"><path
             id="path350"
             style="fill:#ffffff;fill-opacity:1;fill-rule:evenodd;stroke:none"
             d="m 0,0 c 10.55,0.407 21.102,0.798 31.651,1.223 20.474,0.825 40.946,1.684 61.42,2.502 14.597,0.581 29.198,1.094 43.794,1.678 20.536,0.819 41.071,1.692 61.609,2.51 14.471,0.579 28.945,1.082 43.416,1.664 20.789,0.836 41.572,1.817 62.365,2.473 3.787,0.119 7.632,-0.913 11.42,-1.579 18.986,-3.34 37.963,-6.734 56.942,-10.111 19.601,-3.487 39.202,-6.977 58.803,-10.466 2.91,-0.518 5.818,-1.033 8.719,-1.547 -0.259,-1.644 -0.262,-1.667 -1.702,-1.413 -14.875,2.633 -29.749,5.273 -44.623,7.913 -18.856,3.344 -37.714,6.689 -56.57,10.035 -9.582,1.7 -19.131,3.648 -28.762,4.989 -4.518,0.63 -9.201,0.206 -13.804,0.057 C 282.986,9.544 271.295,9.062 259.603,8.591 239.131,7.767 218.659,6.912 198.187,6.092 186.811,5.638 175.433,5.248 164.058,4.792 143.459,3.969 122.861,3.104 102.262,2.282 87.98,1.713 73.698,1.2 59.416,0.638 41.09,-0.084 22.764,-0.829 4.44,-1.562 3.301,-1.607 2.151,-1.739 1.03,-1.612 0.502,-1.552 0.032,-0.976 -0.464,-0.635 -0.309,-0.423 -0.155,-0.211 0,0" /></g><g
           transform="translate(440.4702,354.9463)"
           id="g352"><path
             id="path354"
             style="fill:#ffffff;fill-opacity:1;fill-rule:evenodd;stroke:none"
             d="m 0,0 c -0.546,1.339 0.037,1.653 1.145,1.677 5.058,0.109 10.116,0.24 15.174,0.378 16.881,0.458 33.761,0.94 50.641,1.377 12.711,0.329 25.423,0.577 38.133,0.907 16.629,0.432 33.256,0.93 49.884,1.364 12.647,0.33 25.296,0.584 37.942,0.914 16.755,0.438 33.507,0.937 50.262,1.372 12.71,0.33 25.422,0.589 38.131,0.908 6.828,0.171 13.658,0.661 20.478,0.52 5.217,-0.105 10.44,-0.82 15.625,-1.534 12.712,-1.753 25.404,-3.673 38.107,-5.503 13.641,-1.968 27.287,-3.904 40.929,-5.867 13.705,-1.972 27.406,-3.957 41.107,-5.942 0.606,-0.087 1.204,-0.217 1.817,-0.331 -0.027,-1.321 -0.515,-1.625 -1.681,-1.455 -26.527,3.864 -53.057,7.702 -79.589,11.523 C 340.959,2.776 323.83,5.378 306.647,7.552 301.616,8.188 296.425,7.622 291.31,7.507 282.014,7.3 272.721,7.021 263.427,6.767 246.672,6.308 229.917,5.825 213.164,5.39 200.454,5.06 187.741,4.812 175.03,4.481 158.402,4.05 141.775,3.554 125.148,3.12 112.438,2.789 99.727,2.535 87.017,2.202 70.327,1.767 53.638,1.269 36.947,0.836 24.934,0.524 12.917,0.276 0.903,0.001 0.6,-0.005 0.296,0 0,0" /></g><g
           transform="translate(630.0547,350.959)"
           id="g356"><path
             id="path358"
             style="fill:#ffffff;fill-opacity:1;fill-rule:evenodd;stroke:none"
             d="m 0,0 2.354,0 c 19.482,0 38.964,0.002 58.446,-0.001 2.577,0 2.598,-0.007 2.491,-2.609 -0.454,-11.051 -0.921,-22.103 -1.39,-33.155 -0.033,-0.808 -0.127,-1.616 -0.213,-2.677 -20.592,1.097 -41.074,2.189 -61.688,3.29 L 0,0 Z" /></g><g
           transform="translate(572.709,349.4824)"
           id="g360"><path
             id="path362"
             style="fill:#ffffff;fill-opacity:1;fill-rule:evenodd;stroke:none"
             d="m 0,0 c 15.809,0.462 31.576,0.926 47.481,1.392 l 0,-34.952 C 31.648,-32.564 15.899,-31.576 0,-30.578 L 0,0 Z" /></g><g
           transform="translate(565.2329,322.5205)"
           id="g364"><path
             id="path366"
             style="fill:#ffffff;fill-opacity:1;fill-rule:evenodd;stroke:none"
             d="m 0,0 c -3.734,0.22 -7.439,0.416 -11.139,0.661 -6.938,0.459 -13.871,0.992 -20.813,1.38 -1.477,0.082 -1.96,0.521 -1.945,1.995 0.062,6.323 0.064,12.649 -0.001,18.974 -0.017,1.48 0.441,1.942 1.94,1.933 10.118,-0.058 20.239,-0.036 30.358,-0.024 1.012,0.001 1.858,0.034 1.85,-1.417 C 0.203,15.977 0.223,8.45 0.21,0.923 0.208,0.686 0.105,0.448 0,0" /></g></g></g></g></svg>