<?xml version="1.0" encoding="UTF-8" standalone="no"?>
<!-- Created with Inkscape (http://www.inkscape.org/) -->

<svg
   xmlns:dc="http://purl.org/dc/elements/1.1/"
   xmlns:cc="http://creativecommons.org/ns#"
   xmlns:rdf="http://www.w3.org/1999/02/22-rdf-syntax-ns#"
   xmlns:svg="http://www.w3.org/2000/svg"
   xmlns="http://www.w3.org/2000/svg"
   xmlns:sodipodi="http://sodipodi.sourceforge.net/DTD/sodipodi-0.dtd"
   xmlns:inkscape="http://www.inkscape.org/namespaces/inkscape"
   id="svg2"
   version="1.1"
   inkscape:version="0.91 r13725"
   xml:space="preserve"
   width="1504.5121"
   height="991.98236"
   viewBox="0 0 1504.5121 991.98236"
   sodipodi:docname="Corselca-2.svg"><metadata
     id="metadata8"><rdf:RDF><cc:Work
         rdf:about=""><dc:format>image/svg+xml</dc:format><dc:type
           rdf:resource="http://purl.org/dc/dcmitype/StillImage" /><dc:title></dc:title></cc:Work></rdf:RDF></metadata><defs
     id="defs6"><linearGradient
       x1="0"
       y1="0"
       x2="1"
       y2="0"
       gradientUnits="userSpaceOnUse"
       gradientTransform="matrix(141.5625,0,0,-141.5625,662.69727,646.51074)"
       spreadMethod="pad"
       id="linearGradient46"><stop
         style="stop-opacity:1;stop-color:#a01227"
         offset="0"
         id="stop48" /><stop
         style="stop-opacity:1;stop-color:#a01227"
         offset="0.00296981"
         id="stop50" /><stop
         style="stop-opacity:1;stop-color:#e0030a"
         offset="0.230367"
         id="stop52" /><stop
         style="stop-opacity:1;stop-color:#e0030a"
         offset="0.23132272"
         id="stop54" /><stop
         style="stop-opacity:1;stop-color:#d60514"
         offset="0.518325"
         id="stop56" /><stop
         style="stop-opacity:1;stop-color:#d60514"
         offset="0.51876553"
         id="stop58" /><stop
         style="stop-opacity:1;stop-color:#9d1327"
         offset="0.895288"
         id="stop60" /><stop
         style="stop-opacity:1;stop-color:#9d1327"
         offset="0.98473269"
         id="stop62" /><stop
         style="stop-opacity:1;stop-color:#9d1327"
         offset="1"
         id="stop64" /></linearGradient><linearGradient
       x1="0"
       y1="0"
       x2="1"
       y2="0"
       gradientUnits="userSpaceOnUse"
       gradientTransform="matrix(154.1875,0,0,-154.1875,650.07227,751.29346)"
       spreadMethod="pad"
       id="linearGradient80"><stop
         style="stop-opacity:1;stop-color:#007cc2"
         offset="0"
         id="stop82" /><stop
         style="stop-opacity:1;stop-color:#007cc2"
         offset="0.00290231"
         id="stop84" /><stop
         style="stop-opacity:1;stop-color:#009cde"
         offset="0.225131"
         id="stop86" /><stop
         style="stop-opacity:1;stop-color:#009cde"
         offset="0.51658005"
         id="stop88" /><stop
         style="stop-opacity:1;stop-color:#002b86"
         offset="1"
         id="stop90" /></linearGradient><linearGradient
       x1="0"
       y1="0"
       x2="1"
       y2="0"
       gradientUnits="userSpaceOnUse"
       gradientTransform="matrix(166.80859,0,0,-166.80859,637.45117,865.92822)"
       spreadMethod="pad"
       id="linearGradient106"><stop
         style="stop-opacity:1;stop-color:#f6b73e"
         offset="0"
         id="stop108" /><stop
         style="stop-opacity:1;stop-color:#fced2c"
         offset="0.14923042"
         id="stop110" /><stop
         style="stop-opacity:1;stop-color:#fced2c"
         offset="0.183246"
         id="stop112" /><stop
         style="stop-opacity:1;stop-color:#f19800"
         offset="0.8809149"
         id="stop114" /><stop
         style="stop-opacity:1;stop-color:#f19800"
         offset="1"
         id="stop116" /></linearGradient><linearGradient
       x1="0"
       y1="0"
       x2="1"
       y2="0"
       gradientUnits="userSpaceOnUse"
       gradientTransform="matrix(-6e-7,13.533691,13.533691,6e-7,642.11133,852.39355)"
       spreadMethod="pad"
       id="linearGradient132"><stop
         style="stop-opacity:1;stop-color:#f19800"
         offset="0"
         id="stop134" /><stop
         style="stop-opacity:1;stop-color:#fced2c"
         offset="0.649215"
         id="stop136" /><stop
         style="stop-opacity:1;stop-color:#f6b73e"
         offset="0.94885453"
         id="stop138" /><stop
         style="stop-opacity:1;stop-color:#f6b73e"
         offset="1"
         id="stop140" /></linearGradient><linearGradient
       x1="0"
       y1="0"
       x2="1"
       y2="0"
       gradientUnits="userSpaceOnUse"
       gradientTransform="matrix(246.78613,0,0,-246.78613,426.50293,605.54199)"
       spreadMethod="pad"
       id="linearGradient156"><stop
         style="stop-opacity:1;stop-color:#a01227"
         offset="0"
         id="stop158" /><stop
         style="stop-opacity:1;stop-color:#a01227"
         offset="0.00499467"
         id="stop160" /><stop
         style="stop-opacity:1;stop-color:#d80512"
         offset="0.387435"
         id="stop162" /><stop
         style="stop-opacity:1;stop-color:#d80512"
         offset="0.3880038"
         id="stop164" /><stop
         style="stop-opacity:1;stop-color:#e0030a"
         offset="0.528796"
         id="stop166" /><stop
         style="stop-opacity:1;stop-color:#e0030a"
         offset="0.53001237"
         id="stop168" /><stop
         style="stop-opacity:1;stop-color:#761829"
         offset="0.895288"
         id="stop170" /><stop
         style="stop-opacity:1;stop-color:#761829"
         offset="0.98473269"
         id="stop172" /><stop
         style="stop-opacity:1;stop-color:#761829"
         offset="1"
         id="stop174" /></linearGradient><linearGradient
       x1="0"
       y1="0"
       x2="1"
       y2="0"
       gradientUnits="userSpaceOnUse"
       gradientTransform="matrix(233.86719,0,0,-233.86719,426.7959,658.61621)"
       spreadMethod="pad"
       id="linearGradient190"><stop
         style="stop-opacity:1;stop-color:#009cde"
         offset="0"
         id="stop192" /><stop
         style="stop-opacity:1;stop-color:#009cde"
         offset="0.1497394"
         id="stop194" /><stop
         style="stop-opacity:1;stop-color:#002b86"
         offset="1"
         id="stop196" /></linearGradient><linearGradient
       x1="0"
       y1="0"
       x2="1"
       y2="0"
       gradientUnits="userSpaceOnUse"
       gradientTransform="matrix(221.70703,0,0,-221.70703,426.7959,774.7373)"
       spreadMethod="pad"
       id="linearGradient212"><stop
         style="stop-opacity:1;stop-color:#fced2c"
         offset="0"
         id="stop214" /><stop
         style="stop-opacity:1;stop-color:#f19800"
         offset="0.76365025"
         id="stop216" /><stop
         style="stop-opacity:1;stop-color:#f19800"
         offset="1"
         id="stop218" /></linearGradient><clipPath
       clipPathUnits="userSpaceOnUse"
       id="clipPath226"><path
         d="m 0,1080 1920,0 L 1920,0 0,0 0,1080 Z"
         id="path228"
         inkscape:connector-curvature="0" /></clipPath></defs><sodipodi:namedview
     pagecolor="#ffffff"
     bordercolor="#666666"
     borderopacity="1"
     objecttolerance="10"
     gridtolerance="10"
     guidetolerance="10"
     inkscape:pageopacity="0"
     inkscape:pageshadow="2"
     inkscape:window-width="1391"
     inkscape:window-height="876"
     id="namedview4"
     showgrid="false"
     inkscape:zoom="0.20918576"
     inkscape:cx="-618.64833"
     inkscape:cy="367.25701"
     inkscape:window-x="49"
     inkscape:window-y="24"
     inkscape:window-maximized="1"
     inkscape:current-layer="g10"
     fit-margin-top="0"
     fit-margin-left="0"
     fit-margin-right="0"
     fit-margin-bottom="0" /><g
     id="g10"
     inkscape:groupmode="layer"
     inkscape:label="Corselca"
     transform="matrix(1.25,0,0,-1.25,-520.23487,1218.88)"><g
       id="g12"
       transform="translate(1014.6211,670.8813)"><path
         d="m 0,0 -2.258,-16.006 -7.888,-6.536 6.989,-4.96 -1.919,-14.426 8.002,11.271 7.214,-3.832 -3.832,13.525 8.569,14.199 L 4.053,-11.497 0,0 Z"
         style="fill:#ffffff;fill-opacity:1;fill-rule:nonzero;stroke:none"
         id="path14"
         inkscape:connector-curvature="0" /></g><g
       id="g16"
       transform="translate(1014.5078,694.5684)"><path
         d="m 0,0 -2.477,-16.249 -9.92,-7.438 8.341,-3.382 -2.143,-16.445 8.905,13.288 9.694,-4.958 -4.507,15.328 9.463,14.201 L 5.186,-11.516 0,0 Z"
         style="fill:#ffffff;fill-opacity:1;fill-rule:nonzero;stroke:none"
         id="path18"
         inkscape:connector-curvature="0" /></g><text
       transform="matrix(1,0,0,-0.98042154,411.8691,381.751)"
       style="font-variant:normal;font-weight:normal;font-stretch:normal;font-size:102.84770203px;font-family:Arial;-inkscape-font-specification:ArialMT;writing-mode:lr-tb;fill:#7b7c80;fill-opacity:1;fill-rule:nonzero;stroke:none"
       id="text20"><tspan
         x="0 81.661072 100.4822 153.65446 172.47559 219.88838 244.46898 297.64124 327.87848 346.69958 399.87186 424.45245 477.62473 530.797 549.6181 574.19873 638.78705 691.95935 745.13159 798.30383 828.54108 853.12164 917.71002 970.88226 1024.0546 1077.2268 1096.048 1149.2202"
         y="0"
         sodipodi:role="line"
         id="tspan22">Ministerio del Poder Popular</tspan><tspan
         x="0 53.17226 106.34452"
         y="101.61353"
         sodipodi:role="line"
         id="tspan24">de </tspan></text>
<text
       transform="matrix(1,0,0,-0.98042154,542.79422,282.12691)"
       style="font-variant:normal;font-weight:bold;font-stretch:normal;font-size:102.84770203px;font-family:Arial;-inkscape-font-specification:Arial-BoldMT;writing-mode:lr-tb;fill:#525358;fill-opacity:1;fill-rule:nonzero;stroke:none"
       id="text26"><tspan
         x="0 24.580601 83.409485 142.23837 201.06726 254.23952 284.47675 320.47342 345.05405 398.22629 451.39856 475.97916 529.15143 553.73199 618.32037 654.31708 713.14594 771.97485 830.80371 883.97595 937.14825 961.72882 1020.5577"
         y="0"
         sodipodi:role="line"
         id="tspan28">Industrias y Producción</tspan><tspan
         x="-130.92513 -60.680141 -7.5078821 45.664379 70.24498 129.07387 187.90274 241.07501"
         y="101.61353"
         sodipodi:role="line"
         id="tspan30">Nacional</tspan></text>
<path
       d="m 1610.081,481.268 -1186.189,0 0,8.346 1186.189,0 0,-8.346 z"
       style="fill:#7b7c80;fill-opacity:1;fill-rule:nonzero;stroke:none"
       id="path32"
       inkscape:connector-curvature="0" /><g
       id="g34"><g
         id="g36"><g
           id="g42"><g
             id="g44"><path
               d="m 662.697,669.439 c 6.312,-46.89 5.803,-41.959 5.295,-37.028 l 0,0 c -0.508,4.931 -1.016,9.862 5.297,-37.025 l 0,0 c 5.751,-46.997 50.045,-36.175 130.971,12.171 l 0,0 0,120.263 c -1.726,-2.297 -107.92,-72.803 -141.563,-58.381"
               style="fill:url(#linearGradient46);stroke:none"
               id="path66"
               inkscape:connector-curvature="0" /></g></g></g></g><g
       id="g68"><g
         id="g70"><g
           id="g76"><g
             id="g78"><path
               d="m 650.072,763.21 12.625,-93.771 c 8.564,-32.464 76.191,-0.677 141.563,56.465 l 0,0 0,120.259 C 802.534,843.87 683.716,748.792 650.072,763.21"
               style="fill:url(#linearGradient80);stroke:none"
               id="path92"
               inkscape:connector-curvature="0" /></g></g></g></g><g
       id="g94"><g
         id="g96"><g
           id="g102"><g
             id="g104"><path
               d="m 637.451,856.984 12.621,-93.774 c 12.625,-23.442 100.087,19.839 154.188,82.953 l 0,0 0,128.941 c 0,0 -97.382,-147.874 -166.809,-118.12"
               style="fill:url(#linearGradient106);stroke:none"
               id="path118"
               inkscape:connector-curvature="0" /></g></g></g></g><g
       id="g120"><g
         id="g122"><g
           id="g128"><g
             id="g130"><path
               d="m 637.451,856.984 c 0,0 9.639,-7.907 9.551,-2.967 l 0,0 -1.436,11.91 c 0,0 -9.976,-4.093 -8.115,-8.943"
               style="fill:url(#linearGradient132);stroke:none"
               id="path142"
               inkscape:connector-curvature="0" /></g></g></g></g><g
       id="g144"><g
         id="g146"><g
           id="g152"><g
             id="g154"><path
               d="m 426.796,541.624 c -0.66,-12.152 0,-24.342 0,-24.342 l 0,0 99.071,0 c 0,0 71.005,78.444 147.422,78.104 l 0,0 c -3.381,24.477 -5.97,43.895 -12.626,89.14 l 0,0 c -0.944,6.423 -6.283,9.274 -14.74,9.276 l 0,0 C 594.807,693.816 429.404,589.784 426.796,541.624"
               style="fill:url(#linearGradient156);stroke:none"
               id="path176"
               inkscape:connector-curvature="0" /></g></g></g></g><g
       id="g178"><g
         id="g180"><g
           id="g186"><g
             id="g188"><path
               d="m 426.796,700.546 0,-158.922 c 64.582,86.562 197.128,152.159 233.867,142.902 l 0,0 c -4.968,36.887 -7.658,46.45 -12.16,90.345 l 0,0 c -5.279,0.501 -10.618,0.738 -16.007,0.738 l 0,0 c -95.862,-0.003 -205.7,-75.063 -205.7,-75.063"
               style="fill:url(#linearGradient190);stroke:none"
               id="path198"
               inkscape:connector-curvature="0" /></g></g></g></g><g
       id="g200"><g
         id="g202"><g
           id="g208"><g
             id="g210"><path
               d="m 426.796,784.063 0,-106.51 c 49.367,45.308 155.2,101.773 221.707,97.318 l 0,0 -11.052,82.113 c 1.69,3.043 6.875,4.959 8.115,8.943 l 0,0 c -11.611,4.141 -24.501,5.995 -38.075,5.995 l 0,0 C 538.052,871.92 450.838,823.375 426.796,784.063"
               style="fill:url(#linearGradient212);stroke:none"
               id="path220"
               inkscape:connector-curvature="0" /></g></g></g></g><g
       id="g222"><g
         id="g224"
         clip-path="url(#clipPath226)"><g
           id="g230"
           transform="translate(460.7227,670.1147)"><path
             d="m 0,0 -2.256,-16.007 -7.889,-6.535 6.99,-4.962 -1.92,-14.425 8.002,11.271 7.215,-3.832 -3.832,13.524 8.567,14.2 L 4.054,-11.498 0,0 Z"
             style="fill:#ffffff;fill-opacity:1;fill-rule:nonzero;stroke:none"
             id="path232"
             inkscape:connector-curvature="0" /></g><g
           id="g234"
           transform="translate(495.21,693.8022)"><path
             d="m 0,0 -2.479,-16.249 -9.918,-7.438 8.341,-3.383 -2.143,-16.444 8.905,13.288 9.691,-4.959 -4.505,15.327 9.464,14.2 L 5.186,-11.517 0,0 Z"
             style="fill:#ffffff;fill-opacity:1;fill-rule:nonzero;stroke:none"
             id="path236"
             inkscape:connector-curvature="0" /></g><g
           id="g238"
           transform="translate(536.4619,718.5781)"><path
             d="m 0,0 -3.606,-17.133 -12.624,-7.643 11.044,-4.078 -2.93,-15.78 10.369,13.977 11.183,-4.732 -5.094,13.071 9.464,14.426 L 4.959,-13.3 0,0 Z"
             style="fill:#ffffff;fill-opacity:1;fill-rule:nonzero;stroke:none"
             id="path240"
             inkscape:connector-curvature="0" /></g><g
           id="g242"
           transform="translate(579.293,736.6113)"><path
             d="m 0,0 -2.93,-16.003 -13.076,-5.186 11.044,-5.412 -3.046,-16.208 11.385,13.055 11.497,-6.089 -4.955,14.437 9.69,12.614 L 6.312,-12.624 0,0 Z"
             style="fill:#ffffff;fill-opacity:1;fill-rule:nonzero;stroke:none"
             id="path244"
             inkscape:connector-curvature="0" /></g><g
           id="g246"
           transform="translate(625.502,747.6562)"><path
             d="m 0,0 -3.381,-15.327 -13.074,-2.48 11.494,-6.988 -1.576,-14.427 10.592,10.144 11.724,-6.988 -5.635,13.75 10.144,11.271 L 6.987,-13.301 0,0 Z"
             style="fill:#ffffff;fill-opacity:1;fill-rule:nonzero;stroke:none"
             id="path248"
             inkscape:connector-curvature="0" /></g><g
           id="g250"
           transform="translate(678.4766,732.7788)"><path
             d="m 0,0 -3.833,-15.327 -11.946,2.476 7.888,-12.847 L -9.918,-38.977 0,-32.01 10.592,-38.977 7.212,-23.218 17.13,-11.494 5.41,-14.201 0,0 Z"
             style="fill:#ffffff;fill-opacity:1;fill-rule:nonzero;stroke:none"
             id="path252"
             inkscape:connector-curvature="0" /></g><g
           id="g254"
           transform="translate(724.4609,751.2939)"><path
             d="m 0,0 -4.959,-18.515 -13.074,-6.988 9.919,-6.086 -4.058,-16.907 L 0,-34.295 9.015,-38.005 5.859,-23.247 18.034,-3.638 2.703,-13.105 0,0 Z"
             style="fill:#ffffff;fill-opacity:1;fill-rule:nonzero;stroke:none"
             id="path256"
             inkscape:connector-curvature="0" /></g><g
           id="g258"
           transform="translate(772.4756,787.1045)"><path
             d="m 0,0 -5.409,-21.865 -13.074,-10.821 9.242,-4.056 -4.061,-19.613 11.948,18.26 9.468,-2.706 -2.026,17.133 9.915,20.063 L 2.929,-14.2 0,0 Z"
             style="fill:#ffffff;fill-opacity:1;fill-rule:nonzero;stroke:none"
             id="path260"
             inkscape:connector-curvature="0" /></g></g></g><text
       transform="matrix(1,0,0,-0.98042066,843.0293,740.9658)"
       style="font-variant:normal;font-weight:normal;font-stretch:normal;font-size:134.37120056px;font-family:Arial;-inkscape-font-specification:ArialMT;writing-mode:lr-tb;fill:#7b7c80;fill-opacity:1;fill-rule:nonzero;stroke:none"
       id="text262"><tspan
         x="0 100.37529 170.92017 241.46504 267.12994 337.67484 378.25491 448.7998"
         y="0"
         sodipodi:role="line"
         id="tspan264">Gobierno</tspan><tspan
         x="0 70.544884 141.08977 174.27945 252.32224 322.86713 393.41199 463.95688 526.97699 597.52185 668.06671 693.73163"
         y="226.81859"
         sodipodi:role="line"
         id="tspan266">de Venezuela</tspan></text>
<text
       transform="matrix(1,0,0,-0.98042066,844.37301,631.35787)"
       style="font-variant:normal;font-weight:bold;font-stretch:normal;font-size:134.37120056px;font-family:Arial;-inkscape-font-specification:Arial-BoldMT;writing-mode:lr-tb;fill:#525358;fill-opacity:1;fill-rule:nonzero;stroke:none"
       id="text268"><tspan
         x="0 92.044273 169.17334 201.55679 233.94026 303.67892 373.41757 420.71622 453.0997 522.83832 599.96741"
         y="0"
         sodipodi:role="line"
         id="tspan270">Bolivariano</tspan></text>
</g></svg>